tensor
4
10 10 10 10
6965
2862
2269
5514
7195
4232
9808
6849
4810
3922
3432
7291
4386
597
3981
7380
1825
1755
5316
5319
6345
8495
7245
6111
7225
3230
3618
2283
2938
6310
922
4338
4309
4937
4259
3123
4264
8934
9442
5019
6240
1157
3173
4149
8664
2505
4831
9856
5195
6129
1207
8264
6031
5451
3428
3042
4171
6814
8755
5105
6694
5860
6250
6747
8424
832
7637
2437
1943
5725
958
8854
6273
7235
162
5945
5568
1590
1531
6956
3188
6920
5544
3890
9252
8417
3574
436
3048
3982
7050
9954
3560
7626
5932
6918
1512
3989
2409
3435
5132
6667
1060
1309
3220
6616
8466
5533
8545
3849
3168
3543
1711
8292
3387
5524
5786
5216
27
9884
9054
2077
2925
5201
9020
9837
2576
5644
8070
3944
7311
1611
6007
8659
9836
794
4284
2046
4507
5478
934
2969
9276
5691
4575
7536
7419
486
7087
8393
1660
7810
2866
3065
6653
1114
6649
8879
6964
4404
4383
7651
5657
850
5827
8149
3371
9276
7508
5741
7517
792
8594
8216
9099
1287
818
1385
3994
4244
5623
1223
2014
8117
4680
8080
75
5516
9320
5822
2061
7178
3790
6684
294
6360
322
7448
4730
1218
5427
668
6534
9961
7694
5738
1027
6999
6612
491
7923
5188
4259
7882
4116
4811
1817
3214
8456
1870
4173
9891
2366
9169
9184
913
4637
5023
3137
474
2417
956
2383
8078
8950
433
3020
9806
5396
6264
56
4850
9884
3752
971
4620
9631
3419
7990
7989
2083
4434
7157
4106
1911
9675
6508
8655
253
2670
5021
675
9931
2365
3743
2141
1055
2325
3007
6345
2813
3623
60
3658
5339
1621
5975
2932
6321
262
8876
162
1270
7772
459
7110
9711
8717
7102
9586
4299
8729
3560
9298
1488
9401
8328
8461
1240
5965
164
7212
78
849
2255
8752
3636
5400
5682
2255
5722
6610
2983
4187
4531
9324
5875
9483
5561
5006
36
4809
9275
1984
521
4068
3724
8572
267
9202
6810
9043
6076
8120
3356
3496
3899
7548
3693
2423
9377
9081
3488
6347
2739
2062
3364
3271
8823
8224
7097
9594
4226
2451
1174
3011
1453
922
6030
3642
5646
1914
6770
2156
2781
7418
5598
3349
5430
6940
9122
5808
2327
7467
7778
2005
8206
4650
7798
2375
3326
9537
6579
7729
6884
2044
4707
8090
6751
61
875
3468
9444
4912
2702
3605
2107
4213
2181
8458
4563
2799
9329
3144
9098
435
7072
4839
4443
364
407
3328
9472
6177
3689
6120
2062
1651
3619
8634
5095
2970
9503
8160
3230
9721
9874
4087
6560
4057
2574
827
2637
2715
3987
1849
9539
1029
6253
4417
4236
3720
8684
2805
206
9181
8645
2770
5235
1091
935
8375
4103
6618
9433
2452
132
242
7094
9246
4674
3752
5429
8590
6522
2330
7746
1347
1656
6127
2388
7048
3496
2775
9990
407
6459
387
7603
2301
899
6485
7327
6781
520
2944
4511
2872
8106
1312
6122
9883
9026
2222
1
9806
8828
9195
4156
7447
2129
3924
8516
1277
8939
4966
4261
3057
9169
5177
8041
8577
9224
3034
3399
5951
4414
9329
3976
4778
6172
4048
9925
989
2207
3227
1478
2843
7793
5229
340
9827
6161
590
6612
3784
1357
5637
7271
6712
2476
5249
5377
7169
3599
7978
6280
384
5465
8620
5676
1759
5104
7570
1102
8171
1675
5341
3858
2487
6475
374
7601
5270
8758
5208
351
1437
7957
4920
4419
3185
2846
9659
4330
8841
6482
8585
8525
9564
6980
8054
7332
6053
7174
7158
410
5162
7927
2430
4652
4350
4028
1219
5258
4463
6634
5495
276
320
7014
7076
9600
8768
4681
6260
4572
2230
3767
1039
6666
1921
4755
9675
317
1518
2986
9419
9089
1621
9812
7508
5400
9318
8807
3914
6564
6474
3270
1794
4669
2633
3551
9542
4612
6849
3363
9959
6588
1961
982
9432
9448
6214
170
2256
8013
8755
4540
3656
2743
1170
1158
9527
8087
1648
2071
6556
7647
8104
1634
9842
2279
5895
5877
9674
6577
5850
5188
7647
1061
21
9525
4987
3284
3681
8039
3824
7702
4405
8441
763
4812
4669
2644
9437
9051
4436
972
2068
2715
4843
3384
7742
4761
8704
9958
2199
6117
8476
9453
2901
7271
151
8792
640
7334
9947
5012
2094
5947
6242
6681
1727
8988
6210
436
6841
1961
274
5510
8134
8600
1036
6631
7101
2946
9714
2787
700
5193
6944
2447
3386
5637
8867
7474
2096
2518
5239
7690
6188
5014
5972
7561
5371
8978
9471
9154
7546
2464
3853
2800
6577
3243
7544
1136
7754
5860
8354
4309
6250
5545
9757
7555
5449
1741
9042
2059
6501
9365
2236
2260
8519
8277
3518
2651
1274
9880
8354
8994
5137
1144
526
3306
9204
9476
8412
1587
4200
2463
2054
6849
4862
3250
1003
5448
3471
3911
3106
3872
5559
142
8477
9220
5506
2681
9903
3832
6937
6900
4344
1992
9666
637
4852
2208
2940
8286
3673
834
1964
8604
9771
2680
6755
812
7235
4165
9182
3116
9415
5033
3489
6471
2498
2298
1964
9599
4930
7517
4740
5876
5842
9799
6685
2398
152
2187
4556
3935
8124
7856
891
9521
5275
5965
4051
6496
8714
6740
9701
7012
8218
451
6727
6548
1018
8424
6142
984
5945
4785
2333
198
3656
6199
3293
3073
7512
7587
7188
1012
5162
5578
7449
9032
3691
4287
7328
6627
5579
3502
1954
1839
816
813
8458
3837
608
8965
2233
2682
1945
9676
1126
7222
9321
6681
8588
2425
6740
7009
4584
8706
6944
8949
7533
5203
4987
4538
217
5352
4230
1576
1191
4494
400
9866
3782
3822
512
4267
158
301
3391
8210
4589
149
1633
7400
7383
7546
3517
3523
8021
3982
7272
5812
3644
801
1162
8896
4524
9941
3639
2500
3506
3431
6374
128
7633
4165
4323
4812
4493
4975
3460
4534
4047
5183
6233
2411
5085
5947
170
5205
2393
4046
8266
3263
4833
248
3088
6398
3152
2058
2907
9544
869
4634
584
5387
1461
6341
2644
6910
3472
42
2949
819
4951
2889
6400
5000
361
3187
4891
5723
1049
6500
3437
1830
8054
687
9298
7063
4756
112
3902
6458
8590
6178
3978
4474
8733
3514
652
4427
9985
3798
1931
452
1710
3241
5743
6656
429
9362
2357
1491
5309
6776
3073
6695
2943
9022
8807
712
1505
6981
2
8219
3563
7447
443
2093
709
1799
3845
4916
9161
6272
7065
822
2868
9918
5605
7879
325
841
1093
153
9220
2537
9966
7382
2507
9919
8686
1650
1854
6802
783
5846
667
2213
9485
4986
5738
2697
4401
1331
5167
540
483
6797
550
5213
2661
1877
5734
2965
4564
1390
1265
1066
716
5538
7561
7924
9579
1684
1357
4700
8611
7671
5582
1568
3913
7194
3735
392
5839
7202
7148
1649
3360
4092
4205
1142
3856
5067
7106
5695
4050
9276
5981
9748
8674
6737
8994
9913
2209
6911
9188
175
7995
895
9166
6121
1621
395
8279
1395
9396
909
8380
4236
8728
7686
8529
4703
7138
3187
472
2325
14
3631
4939
195
78
6865
1005
739
4956
7182
9772
2954
1176
686
2076
1001
34
2851
1643
183
3547
8260
3037
7101
7288
256
9618
1391
7175
3795
8683
9950
1934
8195
5056
9655
6581
5933
2296
7188
2883
8458
9773
78
9547
3585
4884
9241
7760
2433
969
8413
7471
8584
3841
4922
4651
3148
3357
7187
7531
8639
8450
7540
3328
7101
9727
9163
9715
363
6116
2154
2466
8441
7502
3289
5200
1884
39
9000
7097
5289
541
4209
3801
1716
1562
1732
5969
1248
2386
9463
2195
7639
5981
4132
5953
1337
4842
9722
4278
2429
9276
6108
7279
5435
113
7558
9787
7162
8088
8516
9993
2887
4494
5429
1525
4810
2770
8370
3471
817
101
8606
8589
9341
726
3948
4282
8609
2615
3023
7328
1801
6354
7423
1805
2220
6999
7946
9534
3087
5487
1469
4369
2612
3489
8034
8033
7046
1237
2841
9393
4526
6219
184
5181
6892
589
1153
3684
9445
2488
217
8093
8493
5367
8931
1791
2747
205
5835
8874
6065
803
6933
6760
1668
8290
9124
3917
3088
5747
9726
7250
7901
7686
9570
8162
2684
2314
2421
2130
2083
9346
9517
899
641
8571
5638
2116
4619
738
9823
1400
8066
9582
7111
886
5900
1293
8670
6729
9421
1459
4537
5436
1084
6770
5665
3481
4130
7963
3565
9727
9182
781
8525
6738
554
9554
8335
8327
9157
9211
2191
9374
480
8815
4568
8312
2731
7549
8047
810
9145
8173
5955
7080
3459
4706
1474
5000
7829
5584
1335
8296
7380
374
8049
8653
5124
3786
835
8283
37
3435
3278
9121
4493
8887
893
8461
6124
5380
3060
4904
2735
4559
7689
6255
6806
8923
530
1990
7242
4083
6503
8978
7361
9332
1520
7567
7027
76
430
338
5277
7766
4054
33
1749
9486
2447
8534
3704
5213
4898
1345
3662
9997
5642
4653
5492
2631
5664
7284
1057
2785
2090
7449
9357
4247
6333
313
1315
3845
6644
6404
1922
1329
9381
3554
4605
954
9103
6681
5100
4313
515
2143
8561
6223
1939
1893
3502
6153
5425
5271
8690
8613
8452
7025
3925
2694
9557
453
6184
8462
2720
9788
8860
1994
2704
8974
1093
1885
6086
1471
5726
5756
5964
2508
8211
9705
2779
8655
2931
3490
7855
1374
619
3867
1297
796
5888
1840
3010
7291
930
9940
3088
5457
7919
2371
3412
2063
3786
7350
7145
1821
4770
6883
7382
6361
1949
8681
2885
3700
5585
8594
6497
7017
2164
3526
1369
7370
9488
7349
1247
6934
4333
922
9995
7242
6225
8731
3254
6669
4683
1240
5411
6320
4733
1253
753
6649
8380
9241
3882
9384
8199
4241
4064
3335
692
98
2455
2547
7297
1574
6925
7304
4598
1177
7196
9137
3662
7588
7420
541
558
6767
8310
9206
1417
5834
2821
2228
7384
4132
4377
8445
2387
5284
8278
1319
5962
8372
7645
8845
326
6915
2040
5571
7748
4202
7043
8405
9458
5451
3161
3901
8656
2404
8833
579
9714
1192
8834
5408
5614
9807
9514
7987
6516
6778
1335
4675
4292
1020
114
163
7375
4475
4906
2536
5409
1273
1636
8177
275
9161
3382
9322
637
3128
5932
9379
901
8092
6131
6401
9924
3211
3602
5359
6251
3118
7064
822
1949
133
7497
9479
7688
1729
2839
6712
3095
4069
2559
5343
8695
2397
5296
6651
66
2530
5673
8252
2280
8989
8246
3941
8135
8493
2817
1152
1010
8808
4945
6715
3901
7803
8243
8926
6418
8922
8669
2717
5886
2622
6379
8972
4832
8246
172
8672
9443
3135
7097
8193
1243
4145
2066
7466
4060
2
2627
2034
748
5309
3370
2190
9367
3238
1278
5232
8924
7780
1482
2990
2372
9277
2793
1694
4552
6118
1586
246
948
6510
1635
2589
6758
8714
9527
3836
2264
7392
7125
9745
979
8782
1757
7474
9955
2318
7422
7742
2810
9213
697
2289
2946
901
2453
7872
2673
5067
1354
5917
6109
2183
747
7018
6335
4823
8955
9773
7324
9623
1472
1596
9991
3766
5595
9448
6040
8701
7073
8559
4703
9494
1253
8077
2353
6189
7763
7011
4397
9304
1619
7201
2532
6880
1907
478
7848
8175
1625
8071
3281
5712
6019
9137
5703
8690
4216
6532
1915
7123
9278
4272
6473
5443
146
9078
8093
4155
910
3516
5257
2442
8326
2955
2050
1729
7263
5467
6960
2904
4001
8957
3305
9030
9663
196
4943
6221
126
3502
281
6165
4632
2630
7776
5430
3325
9354
9759
1825
9784
5877
8754
2915
467
126
4310
46
4455
7440
6684
7320
5946
9540
2402
9039
9818
36
4312
6761
6146
9893
6604
6175
9264
9022
8342
4074
6975
9560
2399
4880
7576
5978
7838
2641
1309
4713
6649
5976
6107
927
4914
2025
7107
5585
6008
5956
3063
834
4131
2978
5698
2232
2238
3252
1734
4021
8241
8521
1083
3308
6133
2270
9195
7067
2203
1067
738
1880
3956
7508
1410
365
8918
3354
3304
5252
4199
2953
7156
7922
8263
7701
6905
1931
7317
2748
7219
979
4231
3931
368
8841
6765
7783
6658
3431
5068
1288
1617
3241
6437
5996
7753
5322
6757
439
9333
8462
9367
1737
1460
5403
8388
7384
2587
4753
2354
5643
5676
832
6329
971
280
8552
2485
4652
9380
6255
3727
8519
2146
4883
5658
5859
176
3770
5149
4579
8220
7230
9322
2238
1563
2033
6564
2517
6646
6834
814
7401
3140
2212
2589
8963
6052
6498
2172
3600
8105
3402
8127
2000
7324
1169
8224
6728
9574
296
1319
273
168
8461
6315
6438
3762
533
4312
1574
9346
8786
3010
174
210
5289
8232
3424
6575
8580
6363
62
5512
1749
8001
4124
4392
3040
2296
1600
4077
5376
9010
4020
3218
8182
6962
1148
7074
9513
4973
4906
7236
1999
3671
3170
9959
1617
1740
4610
2744
8707
4365
6849
8183
2721
7328
3991
2546
8902
5651
4964
1807
9017
6379
9477
444
1167
8774
4518
4670
2233
4885
4386
7209
6355
7990
7832
4216
3015
3268
9900
4093
7555
828
4296
3289
1603
239
2520
7934
2975
8731
5789
8048
9994
6406
3409
3101
9727
7146
5026
2141
4899
7622
9748
6729
247
4652
8277
5106
3442
8612
5776
5044
4863
6815
4553
5672
2886
1719
8201
3192
1257
1843
4127
2855
6951
3500
5859
1672
1366
9064
8646
8978
4935
705
3102
8815
4226
3269
2955
5495
4523
3749
4231
2667
1919
2019
384
9457
9566
1029
739
4163
7640
8261
214
2834
5354
1351
9700
2513
5314
1097
3390
1232
9119
9499
5414
3499
3235
9237
6194
4096
7716
5353
2180
2385
2753
161
2559
6114
7534
1135
9723
4888
623
9400
2717
3098
4594
3244
1777
1272
5097
706
7099
3419
9927
629
486
2519
3517
8133
8297
7236
8258
7284
8731
4646
2765
6295
3646
677
8559
8341
4964
4661
1189
1259
7978
8541
57
7840
5360
4374
4755
7131
24
627
8414
9977
2416
4002
7020
6648
7838
9142
2641
5271
1405
9704
7574
1874
7399
7989
1365
4993
8228
3472
505
3441
7820
1004
3103
8536
1620
3887
5542
1780
7007
7814
6346
8619
1308
33
2670
8401
1270
7639
9294
5608
8831
2482
7229
7802
4875
6028
889
2764
768
2395
8926
309
4969
5227
2858
7817
5896
1953
4712
234
180
7349
1723
9685
3583
6988
4625
4095
6680
6261
8769
845
5066
6077
6499
6255
3679
311
7135
439
4708
7192
2736
279
928
1392
6651
6536
9784
3239
1314
1726
322
8239
762
8937
485
8134
1958
231
7016
27
2977
571
1214
1255
7232
9722
2446
3990
3744
2568
7128
2714
5145
1298
8480
6874
5388
6141
2244
8441
1225
8812
6132
9404
2882
9354
6384
100
1029
5929
951
7479
6720
1874
6370
5668
2464
7076
2514
8648
3963
4953
6614
8830
4562
6550
5969
722
6329
464
5057
1066
6087
7210
7858
5901
9893
3599
114
8185
4524
5426
8471
2620
3268
968
6818
2130
8533
6103
9114
610
9918
3978
5457
6438
4853
5279
4172
1869
9695
8011
5979
566
8948
775
7822
589
7613
8446
4498
5546
8376
9707
178
1298
8642
6786
2724
4452
1112
287
7320
7241
6943
8845
2867
4237
2506
6254
6371
4078
9352
4886
9177
7305
9387
7578
2247
6897
2385
2907
2215
4964
4341
9072
5932
3598
6234
3416
8364
891
2188
941
8672
2721
9948
1520
3242
8934
6354
4949
1639
7910
3331
7532
5829
6167
3253
751
5954
7435
5761
6012
6975
448
2237
6139
1357
2703
451
2153
116
8184
5878
5467
57
8502
1
7874
2190
8203
1292
5474
295
5547
1331
8062
2363
1160
305
5742
6620
8949
618
3920
1631
5023
2385
4111
3687
6901
7420
4247
2441
7947
8480
5401
2496
7839
3561
9187
2668
9403
4280
7533
2089
6249
5822
4204
7355
8180
7273
8131
7452
1497
7725
1907
993
9017
5983
1765
6363
3329
1416
7995
1100
9625
7720
7123
2392
7596
226
5539
3108
8323
7614
4879
4724
732
2347
7073
657
7873
9796
791
4579
5791
8130
1501
3602
8356
5182
1635
8695
9362
7397
9737
9266
1215
4093
5969
7324
5351
6492
1169
4063
69
6519
1645
4040
4987
6664
7633
7152
5679
5288
8569
8668
619
2702
9217
5927
1347
712
945
7699
2220
2430
1306
5997
5139
2816
6582
7778
9796
4788
4130
2922
7847
9723
6005
6424
6892
4233
2204
2562
6172
6377
4620
434
8773
2444
5811
7387
1844
4733
14
475
2505
6588
8867
4245
251
2928
9571
1113
7558
7474
5900
9309
6422
9666
8262
7941
9511
6171
3224
1037
6943
5233
3855
9498
9125
3780
9455
4321
2062
6207
943
1527
8143
8192
2407
7469
9736
9579
4446
8640
5572
5648
2393
3843
2149
7425
6406
8045
6199
2772
9526
6508
4764
7776
2547
8109
3383
747
7829
1910
6444
2698
6855
1261
6240
1921
5034
8728
4755
7721
1465
6572
1520
7686
7141
4025
4701
1685
6356
9127
5605
3152
4095
2183
4418
4952
9408
4300
8623
1669
5452
5908
5938
5022
7672
1729
682
1428
5633
2498
7386
629
9090
9518
7857
8780
3784
1596
2000
5013
6614
5688
1050
7273
7890
296
4589
4378
673
1768
8150
5847
2190
4585
8547
1023
9555
1415
2908
1815
4696
3106
9886
155
3216
5947
3401
4558
4253
863
6491
8341
5279
1496
4813
142
9075
2406
9024
5842
9834
8494
111
152
7435
5168
7554
5897
2323
7867
311
8066
6651
6733
439
2098
4890
4421
265
3359
9675
3066
6328
6817
6237
2897
5717
7041
3834
2804
2750
9182
6445
7525
5679
6305
2766
8929
5012
8054
5181
1164
1119
4642
4299
9133
1318
6866
9182
4111
8850
1444
1054
2334
5212
6465
7713
7666
1119
8741
1124
8979
9577
5841
6939
3698
5507
8321
1595
5018
4093
8664
1310
8918
2503
6057
3799
9328
1976
5026
2283
8013
2711
9535
9244
4752
130
9655
6860
4920
6041
1110
1576
6390
490
7024
9198
7090
5607
7943
7485
5907
1971
79
4574
2411
2272
5067
3754
5041
2693
6102
6220
2090
5675
4453
9695
7218
1819
8821
4771
8469
8310
174
2337
9111
7698
1354
2123
6187
2787
2043
9835
4587
5195
6523
758
3966
9055
9433
4953
8923
4991
9857
7872
8304
1865
45
5050
9829
9673
6142
1847
90
4965
3020
3368
8333
894
908
4427
4135
639
5456
4321
9931
661
1175
1585
3249
6645
9666
9077
4422
710
6450
4177
234
8174
5293
4379
7237
8582
9323
3317
1839
3304
9764
985
9503
6185
97
8592
6812
1447
3414
8729
7287
3187
7943
2549
5495
9336
4363
5563
7762
2038
4491
9201
6519
7014
9623
5890
8706
9925
6763
6848
1811
4631
7379
3426
1169
210
6688
333
4883
8828
8240
7194
8598
7485
182
4713
147
5551
2362
4412
2041
8193
1844
3264
152
3096
263
4500
270
3882
6066
9101
5537
5151
473
3743
3936
3237
8893
3958
2110
7851
8126
3455
8214
7057
1101
3682
8521
3730
8651
4455
5647
3894
6134
5241
8426
9674
2892
1543
3276
7125
2108
3220
9350
7534
9536
867
4874
9047
4395
6894
1703
2468
4236
3139
6439
8265
3581
7633
2802
4031
356
1447
1125
5770
6277
554
5586
7532
5042
4617
6343
3825
6076
9246
8549
7378
8736
2998
7505
2916
5164
4878
475
5704
5050
5192
319
3742
4232
7364
7345
3817
4037
7108
4196
6066
2674
539
6943
6689
834
245
25
1299
2120
8571
4334
6522
9698
4421
7990
3862
7415
2641
8879
522
4524
9886
1438
1013
3319
1361
6778
6145
5262
9703
3160
4441
4634
7051
2274
7556
1854
9771
9525
3996
8799
3944
5413
7477
7587
8859
4618
5938
5699
5056
6947
2596
653
5187
4284
5272
6130
3650
3070
6758
4005
8332
7623
9014
962
1609
6079
7085
2110
243
8616
7782
9212
2897
5098
7269
6259
125
5099
9819
2324
4560
8076
2662
4067
6905
4499
9541
8502
2900
6
5363
8533
9092
1221
8915
4977
9793
8018
1666
5270
8813
8135
9682
8343
9912
5247
5963
699
3941
3156
9171
3313
8862
2392
5820
5347
985
3172
9859
5945
8266
7195
9004
3445
2211
716
8418
5229
7193
641
8466
5827
1178
4985
5972
3408
7112
5814
8405
8635
623
6465
7227
1427
8835
8565
1395
8833
6467
7868
7986
1619
627
6370
3373
2605
1299
8594
5715
8368
5568
486
2196
8173
1913
9124
3198
4224
6621
8001
7656
8164
5097
3219
2150
9593
5738
9690
4934
3752
6114
9932
8648
4096
430
4087
7587
18
8327
2604
3662
9207
3742
4782
4440
3630
815
4239
4932
2184
8257
4946
2386
1004
5779
4786
7153
9884
2005
7332
4316
3954
2890
3576
1179
4554
5876
2796
4537
4721
6596
5836
9435
5261
6074
5307
3452
1622
164
2221
5584
275
3179
410
6866
5135
8924
6297
7040
8823
8967
3688
5849
4036
5664
9412
9932
4718
646
9600
1185
244
6987
8491
6177
5937
3286
6258
8247
3269
4609
6423
7817
6377
1573
5299
4354
6456
6460
975
1387
876
960
5244
28
7828
5687
7211
4806
9067
8229
4984
2443
1265
8431
6769
2652
7262
3080
2548
7392
7396
8239
8498
5468
2580
6056
2990
7929
1190
3264
381
4455
1401
9727
3558
7899
8287
921
6687
3443
2981
7545
2543
3099
7568
3496
3925
7410
1385
6929
3232
8442
6184
77
1322
7506
2198
171
7385
6726
2233
6260
6272
9394
978
1715
3022
7665
4719
3682
3814
5081
3250
6818
252
5979
3605
4789
7531
355
2166
5115
6173
1852
1951
6239
7238
4500
4460
4002
2525
9856
6259
3563
2559
2514
3175
5547
5817
6618
238
5769
5815
9193
2316
434
9458
5634
1041
3262
3915
7680
2644
9498
5724
953
5076
5838
9588
9122
9406
6471
6428
6847
490
2644
2547
7812
1706
7438
4180
2710
9039
3022
7735
7583
3765
3260
36
4631
1777
109
6158
1256
3063
7145
7451
9520
9082
5152
9456
3424
5506
5443
223
354
2381
9313
9043
6366
666
9526
661
5057
6205
7098
9256
3437
3741
5435
2495
5480
3480
9293
3080
6340
3856
9859
8918
3181
57
2963
4937
3364
6586
3317
3283
8960
2908
5922
5204
2590
1499
3543
3189
3596
8128
5336
9739
3024
2481
439
8628
4779
2958
280
6230
2985
6512
1120
5180
1370
6542
7364
8014
7933
8779
8618
8102
2495
8756
4858
1353
8097
8105
4384
7136
1080
1216
3984
2367
8652
8646
1400
3110
4506
1234
1195
4747
6072
1687
1534
6997
9167
13
7652
110
9410
3473
7695
5226
3684
3865
6856
8830
8083
3447
7624
1695
10
6892
842
4038
8190
3846
528
180
9072
8195
6540
85
7643
4324
831
7556
6937
2126
3247
9618
1163
8158
6508
2245
5693
5758
471
6886
510
5612
438
7871
9681
680
8786
7842
4107
1731
7420
7350
6638
3121
4545
124
3380
4876
2577
5635
2678
6481
5794
8640
1944
7594
8741
421
4174
3476
226
7729
8785
7659
7247
3542
2449
4971
1007
6392
6101
9022
9063
9662
682
7250
3134
7307
5602
9822
4723
1188
6281
4407
3317
6047
8483
2426
6748
7353
9628
2168
5141
7005
490
8701
3411
6758
4042
8979
8071
4674
9486
7691
4329
8869
5293
5593
1098
8935
3921
4804
9878
8258
1152
7734
2356
1657
8205
5374
4719
1083
943
4007
9409
2197
7209
5351
5521
9512
8600
8494
520
9883
9442
1088
5505
265
1067
8671
431
2586
4917
2613
9338
3244
7148
7733
489
3850
1967
2566
4111
557
6121
1917
847
4461
3405
9750
8010
2704
5916
5347
1848
7647
7008
1280
7249
6287
98
517
5473
908
6070
1729
6870
3699
7415
1916
6535
9726
4889
2792
3149
1900
5732
5132
5500
6834
180
1259
2134
69
1856
8455
6500
1612
357
2494
7134
4460
5356
5356
2356
1688
1581
9643
9396
7478
6473
2250
1168
9346
2807
1895
9248
1563
2981
1782
148
1841
4543
5308
1679
7167
5356
6006
3194
1987
7967
3531
5219
7415
8754
4485
9725
5277
7937
772
929
6143
3854
7641
5719
6180
1676
5518
5447
7376
7031
6229
1590
9688
6092
1638
8042
1412
2710
5630
1523
868
6802
416
3506
2456
9357
5792
693
4096
3739
1454
7331
1872
8480
9380
875
6606
6264
5124
6370
9045
7565
6455
4278
2421
2039
2170
8643
1199
1160
213
7265
54
9201
9713
2341
409
9639
2093
5360
6490
5927
8460
4839
5222
9990
5608
1978
1678
8677
3598
9471
8056
9447
5617
419
8509
5796
8678
2843
8571
2006
2822
1449
1385
1041
5351
6757
2116
9150
995
1091
8839
6935
1828
9855
330
1086
2821
7346
7148
7973
5452
5996
3452
3842
966
1187
6972
249
4526
6622
4825
690
7674
4761
2927
1701
6146
9242
2644
8746
6635
183
8495
3961
8449
1990
5186
2051
4894
9220
5056
9930
2709
6031
9669
7548
6919
7429
3304
2908
1447
6034
9225
7650
9861
9919
4341
5168
8241
7656
7750
5576
5869
8435
9437
7773
7715
1584
8558
9452
2726
1915
1650
226
4066
1791
1273
7292
7621
7016
6659
5176
613
9781
9859
8847
7621
7660
5961
1124
8219
6774
782
6072
1873
5567
2496
6385
7762
497
735
9979
6835
3091
2379
4189
9459
6895
9938
5504
4226
2051
5383
6440
5153
1341
1681
7885
2140
1054
1638
8988
6235
7720
2293
6291
1938
5207
733
5171
2288
2213
4964
5726
7019
3043
2884
841
3176
3461
4935
4162
6979
4528
8407
5308
5878
6972
6752
9342
7406
9554
3420
9730
5990
3100
1379
5176
9627
8416
7467
545
7737
6878
8376
1049
3940
3372
7722
7600
5001
3638
1034
1517
105
7747
9205
334
7953
2762
5149
6932
3351
9824
9857
6721
9838
1177
121
8515
6925
3121
5247
3984
4536
5700
5166
6146
3324
5623
8631
3616
2811
4889
3208
9035
6068
7415
304
981
4032
4172
659
7945
5639
4994
6755
6928
3309
4761
5812
45
1414
3899
449
544
5147
6138
2425
8959
8092
8594
4570
8158
6686
938
135
9400
5396
7338
1617
6982
6510
9018
3036
3636
6146
8798
2687
957
3253
6385
9975
1735
8113
2248
5145
7490
1080
7975
783
3246
330
8436
6023
1657
1171
4761
74
7922
9688
353
5859
6116
103
7657
2595
6526
2102
877
2507
8773
7601
4907
1162
2107
9621
1406
2876
5538
3699
2692
6795
1566
4722
1157
2878
3596
6398
4581
2848
6841
4732
7234
3856
7260
5693
2474
5440
1353
92
6912
1779
5922
4661
4362
3139
5222
9723
7661
4138
8724
5268
9859
9708
283
1745
8385
3644
2466
5367
6719
3159
8602
5010
2316
6749
4702
1512
727
6043
645
9734
2040
9866
3210
9271
6362
961
2565
3921
4201
5640
5948
3106
888
6910
4627
6838
5684
64
8024
7682
4034
7816
170
4261
4248
1963
2193
481
6579
9584
9263
2005
5410
7946
3310
1753
210
7385
2708
1886
8989
8271
7948
561
9287
4504
2554
7316
372
1479
4234
9717
339
619
1162
2982
2617
1703
7044
7268
3916
5396
5788
8225
4202
9037
8147
5436
2895
7302
6997
1466
9049
1905
646
34
7674
33
2483
9720
1034
5883
568
4623
6220
5314
6700
1519
7036
312
2963
9275
1836
1547
4114
4344
2826
1895
2342
6803
1144
1170
1585
9052
8517
9493
9380
623
8147
3464
8123
9467
7077
8455
5585
5244
9484
4264
964
2156
6765
4063
7730
5344
1347
6620
9500
5125
8802
9714
2850
5259
190
5212
2130
4133
645
7833
5744
6428
3916
983
3668
6060
5584
7533
3498
9449
6782
5402
626
5702
8180
3409
8131
8686
7624
3981
824
5676
4084
3691
1415
6660
4429
3620
9420
3898
1730
621
9868
3757
8408
752
4980
3995
2653
7436
6498
699
2851
2669
9133
2287
5130
9602
9923
5054
3731
4472
2203
9947
3174
1616
1192
8720
2517
3214
3046
7499
8751
2605
1428
7156
4692
912
4181
662
9820
9087
9525
8554
169
1252
6729
1418
4552
2034
1515
1059
8396
8380
4892
6140
2308
9170
5732
6385
4483
6736
6469
9741
5998
1662
7165
2971
2252
4623
5387
396
5861
6732
9096
5434
1002
5772
8590
6724
8468
1356
5047
5476
8374
3254
7178
5951
3085
5841
8295
4845
135
2246
4115
6822
9216
3610
2489
1008
7340
7100
6369
8097
4481
1178
3315
1732
9387
9015
6267
9393
9507
9093
2969
306
5172
6439
4678
9784
6954
5905
7761
5308
8718
4661
1042
1980
4469
4403
9268
4314
823
4789
7128
2288
8718
75
7047
2496
7293
6066
9020
881
4891
6077
8649
154
7947
4768
8962
977
2286
4921
6872
1290
6072
4357
3466
7146
5658
901
3879
367
3783
9240
6293
7129
2934
6832
9594
7388
8568
1467
4962
2008
5871
6283
608
9760
7534
6514
3266
3666
667
1247
3736
7707
7348
1910
2834
599
7195
9291
4324
2654
2319
7829
6524
9864
9515
731
1806
1458
5039
4022
7893
1983
1010
6304
1784
8096
2643
3892
3455
9479
2593
4208
4099
8510
8169
8533
6242
2521
1972
1188
5716
3869
551
7122
4629
588
4426
9472
1780
6388
4274
3293
1507
3791
266
3723
5655
3331
1529
4319
3574
9835
5638
4576
9601
7839
3527
4661
5161
2069
1325
1546
3641
927
1973
1027
158
3934
4453
7465
5671
8581
6862
8178
5658
5295
9671
4132
5250
6991
4862
4183
6678
482
8588
9774
6135
4685
4533
5627
7298
2992
3169
1377
7275
3728
8363
4808
1140
9999
8176
2697
810
322
7871
1068
2569
984
9615
3317
2361
7172
6499
3430
5598
6268
4140
8029
7499
8547
943
5836
7292
172
6074
3602
8840
8293
2518
7945
1362
7816
6859
8262
5229
7721
7310
578
5150
5608
9030
5501
9003
2393
4325
5267
3495
3401
1611
1725
8507
7382
4405
7769
1498
2096
5889
1044
6700
3207
8949
6287
4417
5418
2279
343
557
4010
8478
6912
6435
9529
8939
4288
7432
5042
6959
4456
5783
1628
7439
485
616
5503
6443
2903
8979
5005
1283
8956
5713
6880
3602
8561
6220
6138
3384
9257
9690
6633
234
8065
4944
9734
2555
795
8429
5017
3575
4317
9428
440
5414
2252
8377
5808
4932
6058
3345
8048
5909
8492
5910
1713
7677
8607
7795
4487
6655
7732
2910
1272
9589
9354
6824
5882
9635
7778
4369
8738
8346
5446
3514
3626
5511
8726
4238
1084
3253
102
8780
2471
9587
3791
5328
7607
406
4110
4012
383
7006
7591
5947
4260
1957
1940
6710
4862
6519
9181
6369
652
6679
201
9536
2642
5403
6050
2167
1344
8059
6925
6118
1722
7558
6467
5816
4575
1643
1894
8282
2209
9088
1526
6675
4107
6248
444
3559
1906
1170
293
404
7027
4975
3186
876
1738
2708
4866
9367
3396
3569
7137
4854
2825
1562
387
2213
9223
9939
8042
4617
7145
8234
3595
1776
1625
5741
625
9938
4467
2287
5180
2488
6171
8214
4229
7372
5922
1694
2143
5447
8491
4443
6258
7589
7985
6476
7819
6051
9245
3423
8363
6480
5733
7181
232
7814
2294
1539
6645
9027
5501
2338
7392
8987
7348
8085
9353
5250
9027
8026
3500
3272
2080
6660
8848
839
5791
6990
8153
5575
6603
5235
1920
683
2560
8138
1214
718
2221
2898
4023
8331
6243
7505
8906
7675
2618
5485
4532
8221
2500
6086
395
3244
4700
2066
6725
3682
1881
8687
2006
5762
4856
4443
2367
8202
6429
8040
7258
7644
1922
6089
7880
4971
6191
2721
4563
8386
2097
7113
6356
752
6645
4561
1820
4274
1267
9476
9746
4260
2100
7967
3162
3566
4005
7157
6124
9913
8400
9747
7731
4226
9214
4025
1005
2214
9788
1815
3953
8303
5034
6543
8732
1076
4772
3235
6340
4954
3417
2025
1449
7433
8272
7841
6730
6261
4087
6388
1175
5703
5809
4954
8034
3695
3220
1064
3178
3647
882
7379
340
9066
1032
2348
1714
6384
9902
8341
685
1114
5363
7799
7124
5103
257
9860
7609
6117
7117
5965
7024
3299
8102
682
4833
9582
5707
2219
5437
2489
3316
2
8862
1326
7923
7490
194
181
3428
3336
5217
1174
5371
7786
7576
8194
6884
2865
8345
6157
2660
3681
5187
287
8734
4050
3741
1946
4828
2415
8322
9974
3521
1532
564
5700
7534
9035
610
9550
3593
616
1047
7004
3707
5855
8639
4307
5916
8659
9873
7452
6649
3604
9459
5602
3860
4213
294
7174
7168
3178
2867
7733
2193
6481
8181
3531
496
3580
6752
4418
9243
5241
9703
6634
8176
6385
5044
5705
8245
5641
9240
3040
4214
4659
6606
7786
6298
8725
9667
360
25
2501
1051
8109
8057
1219
5119
9156
1433
6454
7456
9114
5930
5008
4641
3212
4615
1812
6766
2139
500
4700
7999
2303
8108
7211
6283
5895
2724
4825
2479
1451
5844
7714
4401
7368
7050
4524
7464
3169
8045
3348
6828
6771
4159
7110
8902
677
2954
1191
1787
1913
9644
7004
5804
5869
934
3659
8940
103
195
2745
6348
8675
338
5189
6280
608
4728
9033
3557
4625
5692
1374
4685
5257
1551
7535
1202
2379
6455
2890
945
4822
3495
4436
1760
9715
1420
2929
4949
9160
886
6179
1676
6513
5710
8072
432
1161
7052
2159
14
8803
9695
2814
3424
3071
6457
4305
774
6310
7736
9400
4048
849
1780
4668
6900
6555
7889
5395
8351
2180
3139
1234
4276
5648
4604
3243
1632
7203
5160
7487
6189
5915
9878
8340
5578
2928
1867
9564
9887
9347
1470
7052
6366
4120
2362
8313
7725
6606
6318
8298
3775
7419
3018
9390
3271
7631
7336
8084
8542
6085
1990
2431
1624
7470
5636
4723
8899
781
3890
1432
25
3703
5032
590
4157
2211
4691
7639
4269
1428
5610
1342
8507
6304
456
5242
4766
8405
8436
7317
8221
6105
5935
3480
4361
5574
4559
6727
3765
6909
3431
5583
8209
7839
3428
7374
4161
673
383
8759
1167
7615
3898
2175
2364
5124
9415
5629
5145
3610
1333
1259
5488
4008
3216
2341
7780
9893
2776
7377
1574
7114
2678
8835
1430
5282
6909
1449
7230
8983
7348
3396
2879
102
7000
9728
8521
1154
8418
6066
938
6593
662
275
7305
8185
3583
1222
4330
5693
5546
7103
8501
9751
4727
3030
3167
2104
6426
4259
6719
2110
6278
8852
8467
9782
4786
1425
2571
8141
4352
7104
6925
6782
289
6770
6210
2817
219
3913
5387
7461
8509
9302
2237
2160
4574
3096
1110
9673
6864
7305
7801
1043
8860
6515
2119
4588
3144
9348
4907
9131
3104
8943
7389
9253
2331
3278
9040
129
1250
461
7950
9734
7186
9210
9232
6959
6111
3622
4903
5151
9485
280
8912
1556
7085
5577
300
887
1800
3522
268
3800
471
7558
8254
5553
1731
6929
1238
9565
1618
6681
7439
5627
568
8499
7950
7043
1699
1322
6229
1423
7899
3402
1413
2887
2203
3750
6430
7088
8489
5819
5623
1820
866
9411
2981
3065
9808
104
9250
1322
5217
737
288
5693
4891
2483
5686
7939
6764
2671
6131
2508
5405
4297
4939
5371
2949
4616
8660
8785
1311
6722
5625
6852
2031
5481
8315
7397
9633
8501
7852
8021
3947
4039
1956
8950
5563
9861
701
8153
250
6910
2738
8831
4541
5496
6133
8411
8256
7822
7989
6156
1050
1819
6875
1932
4762
596
606
608
1683
4935
4136
7663
4438
6058
2464
8668
5646
8569
2494
9892
2601
6542
1610
504
6304
8664
774
5424
8567
7193
5989
6534
6880
9146
2582
8237
7104
2064
8090
1916
1216
5331
6
8743
3175
4329
3049
8189
4222
6719
1759
601
5793
5488
6419
8056
3712
8554
584
1483
5123
5109
4510
1429
6683
3876
2761
1876
8960
7953
1688
106
1227
1106
7634
4077
3695
4325
7426
6636
7237
5920
3035
2959
2722
9352
1187
2776
8289
9860
2174
9712
7302
3821
3427
8675
2778
3107
254
5067
2134
9940
1525
8815
1476
3963
6281
9102
8924
2037
1752
7183
2430
9526
311
1885
1123
6758
248
5521
7802
1213
1436
1571
1380
7497
3382
5258
260
7967
134
9637
9713
329
781
5471
3494
6350
6539
272
2210
6732
1980
477
5377
1520
8986
8283
7585
8315
8005
7902
9972
7521
4858
6707
1358
430
2807
4759
1831
7757
9031
2119
7472
2617
3473
2623
2118
2791
3633
1886
8623
526
6682
4603
5434
8986
1822
2612
4064
2316
7964
1734
5702
514
836
119
5930
5455
4919
2995
5301
4881
6514
3297
2309
7261
6977
1539
7246
6586
9062
7098
9487
7530
811
8274
2393
6912
5234
8482
993
6714
3362
2978
1840
3636
33
7706
4826
7409
2982
7088
6699
8074
2730
9709
5261
3172
4604
9099
6038
6448
8623
1194
3194
7546
7305
9861
4271
641
6658
7057
6244
5703
2780
3277
9434
6603
4103
7309
4766
5275
9103
8622
1670
6506
9370
8327
3772
4968
7502
9223
5887
3400
4742
8680
5528
4124
4475
1943
6814
3613
3352
8081
5779
5472
1938
7800
8947
4824
9523
5483
2084
393
7180
4094
8632
7502
2438
3023
870
7196
8187
4808
6163
1939
9663
3180
7382
5543
5790
9769
9610
2614
6376
1762
7556
5987
9218
6895
4837
2925
1641
2545
8175
9354
8495
8238
3151
6397
5660
7904
6680
197
6141
665
6584
3296
7528
6342
5520
8282
4836
8911
8390
577
8949
6207
9651
7317
7883
5387
9649
7040
4193
690
9779
8819
6366
5520
6094
8752
9241
2912
3039
488
9904
9653
7863
4434
5699
7742
2216
2186
5619
6778
5111
3018
3891
5874
595
9767
9716
8431
3663
6677
6430
4088
8811
5528
378
2981
7438
8545
6122
6581
7840
4233
1386
2940
4911
7097
3697
2365
4213
8062
6267
4768
2718
2625
2424
5937
1230
8072
4802
9605
2431
6771
3772
9812
6300
6875
1415
3631
7146
3318
7760
7322
957
1225
1250
324
3273
6790
4988
1346
5532
9032
396
4214
1720
358
440
5314
5232
2835
6685
2762
3256
20
1200
4095
4656
1910
7835
5435
6965
3200
5725
2002
3765
5780
2794
2259
5114
6261
7678
7739
1847
625
6147
9500
9254
7692
2228
2291
5584
2516
6508
8283
2905
9006
4293
4378
6644
8073
7163
5360
8348
9460
9308
3039
3854
7726
6972
6948
7915
7053
2761
5652
3402
2993
3108
3988
4228
2873
6436
7696
5569
6607
2158
6884
9926
3516
1976
2915
2246
5733
9457
552
8312
3615
3519
3729
6083
1526
9186
3836
7184
9814
6094
8317
2177
1081
3917
3421
1154
5030
7655
2206
3607
369
4646
9457
1650
1142
1277
5317
3648
7268
8302
640
9750
5454
7020
8970
2837
4577
9172
3220
9558
6395
6501
911
3838
2471
4866
7647
7304
7070
2546
7003
4775
4890
6217
1400
9314
6210
3579
5783
6769
8628
5133
6872
3086
3872
771
6528
6567
622
3998
963
5639
3505
7709
4181
9943
7097
2586
1198
7255
3288
735
5774
1030
2493
4693
7762
4195
3018
1886
3758
375
3686
2687
1141
1664
9299
3670
7015
9161
1233
5968
9068
9489
4283
4027
9684
7323
8670
7742
6688
4013
4012
6876
8312
675
8723
5319
5426
7799
8337
2240
7990
380
7138
5634
7206
8399
9640
4688
5188
3479
2801
5887
3636
4238
1045
1057
9135
1798
8296
7149
4384
2117
509
8716
6741
1840
656
9198
2804
2615
6219
5219
2586
2097
8990
2949
711
6247
8619
437
1615
2196
6937
2868
8671
2360
5769
538
7832
9911
6759
6271
2796
7356
4946
2075
7165
5632
9232
4560
9226
7989
1705
5772
7366
352
1128
9059
4127
9399
2812
6389
4389
9166
7399
4226
7507
7568
138
6221
552
7823
113
8195
6759
9857
1470
4590
4206
1878
4062
2240
192
4393
3675
5115
4366
9212
2587
8742
1377
4536
889
6385
8923
6152
6891
5158
4421
9745
9769
6639
8206
8722
2196
8051
1337
6380
9356
5957
3465
8675
4400
8380
5345
1534
2331
7802
9723
9418
5003
1860
765
4445
224
8942
6418
7313
2981
6579
1013
2662
8490
3718
1883
2243
6481
5850
1054
8675
9033
1384
3483
7194
4459
3574
9502
3192
8092
3638
5098
9601
6375
3324
2728
4944
6174
5760
1283
4184
6735
6350
3569
5491
1514
1140
2001
2876
7507
5963
44
5363
3757
3619
7994
5010
1702
2204
3121
3389
3997
8787
3347
5738
35
1790
7676
4363
3186
2943
4661
32
3139
9512
1399
100
28
7133
5683
9949
3319
1533
5437
1870
6986
1736
3503
5373
7364
7902
3504
5074
5692
3369
7260
1014
5107
4370
2282
2391
3671
8575
1272
6546
4367
6520
2781
8317
1039
7923
1313
1930
1185
8301
7447
600
9074
9574
9487
1790
6540
1397
3631
9740
6454
7310
9758
1721
5764
666
4545
8751
203
5186
8428
3116
9223
6468
553
6540
3864
1511
9272
9775
7728
8465
9912
287
1134
9320
5873
4226
1546
352
7647
272
4369
540
7448
5311
2524
2448
5857
1226
6352
9385
4627
7036
2777
5266
5245
3885
1956
6379
9535
4516
1141
3541
6848
4933
3070
8555
6163
8847
9733
6076
1948
5795
1175
7848
981
4793
7182
9237
8959
682
9883
4473
2097
9774
8655
6408
6116
4041
257
5833
4729
9083
5307
7463
9622
939
5156
8931
8886
3142
6238
6527
7965
7293
7082
7072
3798
5691
7888
2507
3483
5558
2424
4589
5142
1679
2399
1631
7304
904
2451
7207
9177
2522
8955
3389
8490
5120
5732
4687
7564
3894
6468
5993
2507
7835
4882
4529
5787
8600
2970
3289
3725
1889
7755
4727
959
6957
1281
6767
3856
6142
2335
6163
933
9626
8608
2640
2975
9247
2272
5173
5897
2526
5806
6724
8718
5942
9005
5632
6390
9581
8181
9773
5592
2474
8783
6770
9530
3273
7408
4223
1781
2118
2519
5072
7733
9360
1043
8154
3107
3970
5582
7348
1789
3232
4458
5696
8226
5037
2005
3109
6458
2700
2189
2912
4264
3044
7384
8065
423
4596
2727
3903
1869
671
6381
9623
7349
9795
9653
3537
7383
8140
4695
3216
9337
479
3971
9774
1320
466
3412
788
5876
6169
8152
9956
296
5960
8284
6818
1535
6150
1865
9192
9716
6554
5504
1351
7815
8120
3557
6442
2197
9245
869
7088
7444
7066
7635
9606
4199
2009
1298
787
4611
1084
8259
4866
8226
6514
9210
8417
2775
7024
8980
5215
7421
481
6278
7358
5574
2792
9392
4599
5556
624
8151
4223
3324
9153
2556
1415
4716
7435
419
7199
5159
6769
6826
3141
1765
206
227
8705
5090
3262
9122
9270
5369
5510
6335
6981
3346
7409
196
8091
6759
8701
6208
5995
2318
4166
7832
5083
7422
9806
4545
2072
4443
3368
2117
9894
4521
9806
7096
3817
3
3942
3114
4588
5702
6278
1322
6192
5442
1266
2049
5311
6607
1694
6634
3135
8296
3885
8140
2346
7384
5346
6456
4545
9857
6950
3887
7409
7352
1226
2316
7111
3677
4067
4964
7786
4649
2779
6794
8644
5216
7009
8348
1579
5995
7302
1250
4551
1776
4633
81
7400
8207
8281
8072
555
2911
2396
4786
9197
1868
7874
3552
1094
3571
2079
2033
9871
2992
7996
71
657
6112
6846
6439
8717
2261
3218
5630
1481
5217
6097
4720
7815
8176
2699
2659
1033
9890
1792
1278
5338
8110
900
2663
9302
5111
1733
2199
7476
4578
5771
7120
1851
8297
403
1526
9006
1051
5253
2318
6641
8912
8480
7533
6563
9649
1821
6268
9272
2046
2936
7672
7617
6492
698
4681
6653
8049
8450
6939
5748
3421
7348
3524
5151
248
1493
3097
4645
5697
2015
5298
6372
4471
5425
3309
2511
7758
2954
180
7506
2984
2732
3805
4627
8048
1594
5328
97
622
6535
9278
606
2708
895
445
5917
8811
1208
5867
1755
4081
2918
1649
3334
7157
1767
4148
5936
9623
2294
5863
315
2504
5145
5038
9989
1943
6318
633
8808
887
4744
7396
5402
2970
8469
7834
8969
5876
4462
8102
6836
2546
3425
5871
419
1258
4368
2528
8123
4594
7975
2894
682
9594
3344
6280
4205
7395
6382
6056
1853
6948
6241
4129
3296
8372
1730
6832
3309
3674
4318
9015
168
529
6530
430
6954
6186
7482
55
3443
3431
121
1841
4763
1778
1864
6093
2866
3653
3658
2382
3298
2232
4228
2116
1246
7731
8882
9002
2354
8021
4400
2546
1807
678
5005
6313
7699
7507
8290
2284
7769
1814
6482
8507
26
9912
314
6436
1412
9981
891
9833
4087
1823
2550
5804
230
8787
3450
2481
4498
1496
8962
9922
3868
608
9908
8194
6180
8484
6878
6497
1211
8294
8896
6762
303
4606
9577
8910
8569
5300
1633
4002
7766
8295
9448
4867
6578
1487
6276
5487
3843
1017
735
4436
5120
864
2704
7254
7850
7221
2799
9678
3277
8483
6849
4140
3332
6081
2309
4543
5929
7421
2215
679
1868
6369
8037
2187
5610
3897
269
910
316
4845
7332
610
2766
338
1926
6188
4373
2479
2749
1267
6377
7777
5808
4030
1763
7273
997
2379
7025
390
5342
1359
6200
9304
4226
666
306
9395
4685
9064
4117
3070
2751
5101
7483
6032
6216
1453
5941
2167
7862
1912
2998
925
9049
2319
930
2629
3937
1868
4714
9859
9633
1661
7325
2324
9553
4171
3794
9821
5184
1694
5784
7312
6996
7423
7589
9412
5912
5335
7988
849
3668
6212
4092
7285
5438
7401
7844
5076
7393
1711
3727
7720
174
2539
3319
8610
1179
2269
4594
4234
4358
3487
858
4505
3314
7201
9772
6210
6372
520
6350
4436
1205
9075
4583
9455
7589
5985
9569
901
4751
5282
3964
7937
2846
2597
807
7478
3502
1491
5332
9377
9686
2523
4158
1917
4945
5802
4398
4972
6643
3650
7985
7855
1894
4365
9323
1307
372
6454
6286
4914
8937
5951
6228
8389
315
7207
869
3834
5111
6900
691
7904
6648
1653
6344
7148
4824
4392
7779
8568
124
609
8441
9367
4377
5426
1031
2911
7128
4846
8134
2777
4281
8132
8502
4245
4590
2370
4256
4975
3065
1233
3627
6049
1426
8437
5440
3171
4842
2185
2980
1919
4603
3608
3475
8913
2967
2005
1538
74
3189
6386
6484
9910
9167
1426
8508
906
4317
5023
9456
5689
8043
9718
8240
2213
2134
3275
8573
6687
4212
3210
3442
6204
69
1678
8035
1675
8370
3228
9644
1750
422
8152
2564
1203
8909
6641
404
1542
7413
8862
4840
9658
4190
9370
3190
5215
349
7135
6463
3155
399
9291
4521
5756
3855
3851
1957
4953
8970
9870
7651
9800
6258
1886
8690
8531
4564
5901
5431
6056
7313
7166
8168
1656
5475
1087
6904
8377
6734
6127
3017
8917
4153
9537
9697
2469
7264
1115
9050
1316
1280
8346
1920
4677
2033
6344
7032
4182
7342
1069
8577
7304
1558
2082
3606
6526
7026
9354
3377
4056
7024
3639
6814
5576
1447
4130
369
8025
9395
8802
4040
1936
3961
2661
9484
6177
4948
5494
1451
9133
1076
3585
3838
8065
2743
5226
8103
9455
3666
4126
528
2869
5961
3646
650
327
474
2625
5669
4435
4503
7488
2233
9291
250
8480
6769
1578
1450
483
3712
5146
5956
4014
1012
3550
5683
8509
4163
2400
8466
4500
9104
4219
1186
5988
7902
7410
9384
1033
9500
2179
4958
8803
3322
3210
5973
1112
9919
4129
1390
8724
523
8772
2782
4010
2820
359
9527
871
177
7534
7283
3423
5
181
1711
6038
2520
2812
9630
8997
1266
6086
2461
219
1668
1006
8033
343
386
6045
9276
78
7292
3681
4352
3752
6219
1253
1157
3365
927
8732
9915
9649
5284
7967
9727
7098
9231
1629
9482
1609
569
9814
9887
1075
4114
6361
8513
3718
9160
1443
330
4057
5281
9204
8938
4326
8640
1645
2125
5118
487
7566
5353
1439
5109
4974
6392
565
3693
8073
254
6387
3413
6754
2925
9040
3012
8461
1733
9806
3625
5039
8376
760
1505
3382
3891
8115
2248
8105
7352
8162
8364
7423
1813
4763
7832
2287
8116
6821
7867
1051
5550
7387
5508
949
9468
6335
5075
3537
2494
5108
566
9409
1741
3153
8267
9598
5169
7360
9371
561
24
7978
4869
7094
3944
1338
588
9039
8302
8103
2313
9701
8824
5021
9608
7264
195
9701
5589
714
3638
4092
8426
280
6481
8978
6569
3860
4650
9285
737
4498
5939
1183
6026
934
9769
2819
4945
9894
2739
4826
6767
9153
4327
3023
4194
4069
5614
1604
595
14
2752
3186
9683
2176
5448
8687
7389
592
3727
6652
63
9533
2314
4871
713
1508
3443
1116
2413
4913
5707
8334
2517
7844
9819
9304
1316
4322
6559
713
3998
9074
8555
478
7719
7728
705
6546
7586
2028
7347
8649
5379
1767
9370
4547
7560
8094
6706
1518
9236
8445
5871
5548
3310
9206
5379
5442
6237
3918
3262
7747
7575
5888
6686
6026
4579
8200
1462
7906
2403
967
9403
6107
6176
9147
2189
5102
9994
3790
9068
6909
6445
1409
7704
788
1727
8076
4920
5119
5433
1865
2363
8984
5258
5403
1718
7959
7396
2000
5215
8913
953
6147
6201
693
7025
774
2570
9206
7160
3565
3806
96
362
8831
1112
7702
915
5694
1977
9516
9748
3585
8216
2858
7493
1766
6396
9560
1829
1643
4462
9588
4450
2097
285
3634
7363
2874
4500
1855
7055
4402
932
3313
7232
6695
7636
9079
5200
1378
4887
42
5382
9242
9834
9741
2183
6833
2956
2957
3996
6558
1388
5834
8491
6354
5097
3017
1762
1557
4172
6947
4331
6581
9771
9476
3191
4362
1215
3641
7952
8444
549
5440
7003
6300
6928
9778
1130
7198
8384
8052
5965
7436
1532
6261
3960
7162
8298
4958
342
3676
5277
731
949
2266
8592
6330
7339
7732
6550
6020
5394
7575
5974
4965
7561
2561
281
8939
9697
6845
7898
415
1508
8736
4242
318
1867
5687
5184
2306
9730
7506
7100
6037
7718
1209
9082
8040
9424
1007
43
7870
9857
7376
9302
4360
2176
9042
38
5810
6882
483
9125
9156
9572
8153
4636
5436
7668
5122
6066
8477
1132
9102
2480
235
243
8913
7212
8743
5274
5673
1425
9522
3804
5407
3273
2350
5221
5143
9805
5464
7946
7979
6478
2740
8649
5765
9090
512
652
7762
1221
3876
2245
4912
1784
8827
9415
5794
1951
7018
7503
3527
3618
4308
514
3967
2686
2684
1414
4473
4226
1718
2829
618
3334
2280
5184
2384
4639
8190
6796
4437
908
133
7117
2189
8655
813
5538
4830
7715
8934
3407
374
1835
1428
926
2787
5792
4244
8612
4697
2876
9448
193
6467
1571
5019
9230
1941
3088
3457
9501
6368
2561
7367
1834
1710
2531
9446
2273
6726
5144
1422
7014
3651
8932
156
3613
3818
6164
5842
7047
9711
8880
2719
3221
3323
8345
12
943
879
1688
5541
1513
8031
8143
3472
2147
1438
5357
4870
60
3078
5009
1528
2752
7397
3848
1704
7956
6364
6269
816
4099
2428
5967
563
6764
5912
3830
4126
4607
2302
4519
4164
7127
4562
5489
4843
6467
3122
670
2402
7240
2528
7843
3278
1012
2120
7053
8317
9089
4446
6793
4515
6127
5396
5886
798
305
3988
6221
2619
2833
8682
9773
9398
4661
6612
8274
7502
6076
856
883
228
5050
7617
8324
5368
1954
5024
5994
4320
8698
5812
7147
8090
3177
5596
6786
9353
5598
8791
6290
1321
3775
5940
5463
5505
9716
5156
5400
9281
1951
6118
8548
2322
1328
1266
9484
624
948
1989
4581
7782
952
8563
1807
9487
2886
2990
1055
641
4979
8569
785
514
4328
4198
8579
1798
7906
3022
481
3641
3969
6270
2494
139
1359
2474
9416
2785
9017
5827
3081
6748
843
8257
5853
4833
5002
8892
1157
1951
7220
3830
3111
5368
3861
6750
2459
1011
2084
4412
5127
6224
9280
3559
8378
1007
8537
1257
6717
2991
9883
8046
7453
5102
4179
4185
1189
8117
1255
2648
9020
1986
2208
659
8346
4029
4251
745
8988
3475
6336
3890
6607
1975
617
7736
6561
4031
311
8114
8802
2898
3998
8969
7573
7700
3468
8237
2659
2989
5904
1997
713
4035
5331
1734
8975
987
6312
8483
5325
8037
7986
3374
8331
6128
9491
3024
297
7577
1187
7429
1862
6409
3606
8592
2134
1427
2948
7723
4835
873
1770
808
5152
5082
2726
410
7243
856
5576
6497
9301
9760
6027
2443
9991
5665
1641
8664
4897
8087
2255
8976
4947
5130
6041
6361
630
1839
8048
1075
2289
5121
7893
1723
6461
3431
3415
949
6135
7118
1862
3023
7924
9867
505
4954
4880
5865
4054
1548
4049
4046
6211
7672
9384
9280
229
900
5779
3742
3150
4403
8486
2738
8083
2915
1370
3244
8005
2941
3598
2430
4007
5202
6595
5908
2519
5176
529
4373
1573
1598
8363
9019
8765
7360
7061
3835
6288
9798
6537
9661
2431
7657
5403
7996
3641
995
5759
6843
780
8027
3481
2939
8733
1512
1085
5220
1834
5785
6345
7042
7624
5328
7222
5222
6942
3291
15
387
8344
7656
4490
9703
6121
8986
6707
1414
5301
361
9097
6604
8957
1143
3481
8503
9338
1036
35
2128
7150
3303
4488
8743
3817
1016
9014
3745
9992
1208
5038
5709
7218
6697
1100
2929
4713
1765
7773
5964
6318
3094
3705
8636
3139
7089
5831
9816
1387
2347
9331
2055
5300
1853
4160
9674
2002
1052
9856
806
9319
6612
8196
4220
494
6400
6404
728
2974
3083
7952
6047
1100
444
3751
4828
7387
1138
2166
8067
1047
600
7121
312
7622
2509
5049
9863
1653
6596
3784
6999
6826
1574
4648
7199
7418
990
1284
5597
4825
8154
7233
6046
4408
9422
6187
9632
4041
9929
9749
6313
2875
2524
5719
672
2084
4982
8659
3932
7212
8508
8730
5351
2725
6778
5420
1450
8923
7549
1539
5819
8624
1905
5515
4903
8968
5428
5794
1666
2282
4952
1684
6551
8242
3696
7775
9888
7782
4819
8611
3556
6220
512
2383
2216
2210
2966
6017
8555
4646
5211
9378
5738
7590
325
867
1605
8415
5765
5860
8337
8264
6421
9733
9492
3823
2260
2433
7497
2651
600
1604
5601
4332
9911
1401
70
6695
843
7818
2164
3602
9346
2461
1235
4840
2429
1570
3306
4927
63
667
1777
708
1398
7452
5097
3065
4314
5726
7418
9682
9959
512
7127
545
3487
6873
2994
7725
7539
6911
1901
3990
6867
9492
6004
1737
1954
1049
3771
9835
8104
2137
6296
4304
5184
4377
9559
84
3650
8812
3
6791
96
7312
5204
1509
3775
1333
7390
2836
1861
251
8566
4778
2716
4937
1239
190
8034
5366
1606
4651
1613
3986
2777
6836
4742
1110
3383
7125
791
2942
1526
9127
3552
4757
3655
2737
9552
7842
975
7036
4426
2422
8466
8992
8459
9644
7598
5522
1383
6203
106
5064
9523
7135
5074
2019
6355
6465
4951
4225
327
9816
2521
1033
1799
5223
1696
1494
4136
6204
2815
5092
4114
7967
916
7557
5493
1998
1286
6173
1091
8048
6090
6890
6159
9031
422
5706
7244
2838
4668
1392
4230
1787
8366
2335
4404
4728
8542
6347
5566
460
1089
2303
7767
765
7789
8261
4959
9434
5994
9864
7575
473
2930
9363
5297
1881
7759
8991
739
1681
6608
7818
2578
6816
3931
9340
7267
2946
3837
3972
8152
9403
5770
4921
8875
5691
868
5651
2568
6749
9199
1956
3541
5354
6528
3947
9251
1660
3979
6801
7754
7088
4482
9588
5639
4252
7898
2934
3907
8466
7375
9231
4797
932
9348
7786
1982
404
8548
8830
7746
5743
3797
6618
3825
5589
1635
4255
6721
8359
4003
3002
2507
9283
1954
1339
6086
3813
6827
7589
9864
4944
3956
7641
7867
9461
3154
4867
6223
9816
7597
9889
8286
2140
8024
5748
3332
1898
1460
1278
4230
9161
6333
4979
4755
1620
7686
2910
7230
1155
7687
7689
209
8537
1196
8818
3130
9775
4244
9864
1069
1527
4900
716
9392
6512
7177
4824
8496
4522
5250
5354
3461
8996
3485
6911
6739
1345
7781
8947
3415
8406
6172
7400
693
1271
7977
3770
218
2752
6113
8490
3301
3667
1790
5092
5688
5494
9272
772
1003
871
6856
4203
3791
9739
6442
7267
8236
631
8467
2249
5970
5339
7524
8613
9508
7169
127
8114
249
8837
2882
8054
2266
7037
5133
6179
7034
4957
1779
8941
6255
9898
2479
1999
631
3223
3994
6607
1487
6699
4244
4502
3019
7142
7262
1210
8579
9876
2273
7248
9553
597
9993
9434
7239
5760
898
6609
5406
1693
9080
4965
1760
7880
3745
3699
3137
9619
420
5203
7593
8356
5413
7684
9735
5527
3450
9952
8627
3512
8761
7849
6677
6000
885
7515
1682
7787
7256
4409
1219
4453
1124
3000
2634
4477
701
3693
6683
7029
112
6080
2479
4109
1087
10
7916
2871
1691
4601
8837
5040
1220
2558
3113
1045
8191
5475
9012
6168
259
8860
1180
6056
3575
7197
801
7926
8023
2298
1624
6393
6496
2868
5421
8822
5038
1072
8761
1678
5752
8090
8005
2577
5460
5423
4545
9640
3891
2761
6483
7427
917
5880
120
782
7477
8071
1646
7284
864
9659
468
580
2407
3652
4673
3653
773
6997
3183
6580
6457
7299
5577
4722
1265
4153
3337
1647
1224
2655
8237
5761
6643
929
3510
8158
6038
735
4993
4615
4639
6657
5577
7340
1566
8915
8467
1580
1479
7473
4473
2169
7657
1975
2686
8554
7800
8480
5449
3963
4483
1956
6019
6958
5167
1794
9844
5777
5804
4498
6337
9555
9367
1498
4238
8887
1966
7533
7681
1823
59
5747
1725
6033
9905
6927
4910
4111
5770
2061
4377
8593
4728
1995
7407
3204
9723
1321
8480
5019
4889
772
7204
1569
1028
3367
6298
2814
2190
8124
7225
1561
4872
5046
5954
8409
9574
9231
2044
8372
6128
1368
6029
3703
791
7857
1736
6567
6681
9986
2580
409
2567
5960
8043
7433
2194
9238
9575
5399
4252
4710
8187
1032
7766
6980
9628
496
9961
7044
4569
8310
4193
4660
5058
5282
9254
705
1357
7285
9687
9377
8383
8548
7963
1411
7640
5012
4414
2664
8225
1113
9880
7377
7396
585
8094
8911
4945
4243
4331
5129
6354
7555
4565
6060
2689
3286
1611
1746
4388
3775
2390
7592
1965
9697
9040
9360
3952
6116
2928
9711
1956
7282
6000
9809
3434
5414
5651
9429
8127
4920
6042
6050
6428
3052
1861
3961
94
1594
1815
4635
69
2261
171
8364
9130
3724
7640
1224
9889
2243
5784
7978
5438
7001
843
1441
3692
2255
9879
4341
1533
915
9694
1335
2805
7117
8800
2101
8098
9042
7052
5378
5719
2986
8327
8440
4144
7247
9956
6588
3708
3830
7103
962
7507
5066
5155
1624
2681
2411
8281
6730
685
4746
4113
1552
9100
4057
6149
4215
63
8734
5042
5664
8580
8306
1838
7139
1625
8607
8435
3532
7594
2827
8407
6358
373
3841
8928
4751
6232
7105
5573
3927
8563
8504
4715
4012
2191
6741
9635
2674
4968
4023
6561
1816
5555
8966
886
3186
718
5478
8747
5528
8492
1544
340
7926
1727
7908
7298
9828
611
5339
7246
2033
4917
1395
2059
602
1103
3608
2342
5610
3112
2709
3654
2202
1054
8065
489
6698
8291
5009
5285
2999
1059
738
993
2495
3616
4411
1625
4937
2116
7352
2715
1367
8285
7467
2133
7954
2587
6121
7349
8770
57
9895
1673
7168
8263
4422
5353
2336
3397
537
1492
5930
1891
6542
2566
4634
1804
4964
1050
1655
6827
5335
8567
9485
1509
3534
7680
1038
4478
1603
5548
6731
9914
7348
5575
1133
1108
2826
23
5675
6498
4244
5330
4105
762
8706
7659
4020
6196
2145
5344
8762
88
3517
605
1651
1129
6313
2775
1267
2022
5559
4327
3526
8241
926
1642
7413
9480
8574
7194
1157
9944
5111
9543
2432
1857
8343
3473
3814
1380
8495
5841
2928
5877
2949
7684
1445
3607
9468
7888
8732
3162
6423
602
6488
2219
1789
3492
6371
706
3908
2527
7091
8784
3869
4283
8901
468
7220
9549
4977
762
4472
5364
2098
5740
1484
2140
9194
171
7740
5721
1356
9924
2718
1925
2475
4748
6703
3834
5866
7563
3393
9015
9507
8157
2225
4881
2614
7980
1763
2889
2753
9366
8549
4588
9676
3130
6698
1192
1164
2713
9012
5009
2414
3544
1262
4250
3956
6886
8099
6934
1429
3281
3280
9951
7934
2600
1118
4215
1993
6970
9906
1347
40
8589
8724
7571
7035
3218
1557
4463
1868
5308
3548
5851
9852
2207
6133