tensor
4
3 3 6 3
55236
68433
73811
71663
89865
95898
49797
61720
66321
59571
67891
74890
76934
86441
96198
53417
61568
67714
55028
63632
70413
70255
80513
89447
50579
58477
64756
60286
74788
79949
76910
94176
101266
54287
67031
71737
58864
69841
76078
79100
94417
102874
52234
61134
67138
57904
71160
75740
71683
88511
93925
51457
63463
67344
67275
84607
90952
89378
114607
121247
61199
77734
83013
74412
87945
95824
95197
110178
120793
68279
79127
86870
72043
83002
91912
89595
104420
114624
65304
74984
83340
74323
93184
99368
95185
116832
125595
65455
82581
87663
72372
85322
93179
97399
117470
127238
65463
76917
84195
72001
88995
94529
93078
116715
123313
65940
81854
86483
83842
103867
111874
108472
135565
144431
77040
95409
102457
91172
106338
116337
114578
131243
144433
82152
95467
104478
87842
100811
111448
109163
126227
138800
80078
91445
101482
88133
109879
117297
111659
138608
148029
78154
98413
104425
88097
104170
113738
117870
142077
154370
78045
91786
100708
88428
109252
116232
110354
138210
146444
79036
98783
104452