tensor
2
1000 5
6632
8398
8237
3677
1756
1127
6777
9556
9641
3530
3666
5460
4972
1846
9084
463
1493
920
1261
4747
1099
1438
3070
5440
7350
7766
3961
663
2658
1248
7562
8281
9009
8744
2963
4992
5491
7244
7697
4382
2843
2733
5496
7504
9762
5738
2063
8216
6355
3473
8956
6206
6371
1316
7851
9250
9450
25
4362
3466
2550
695
3567
6302
9468
2989
3487
5870
8038
8142
5468
4010
4288
7225
9694
9411
5274
7390
4760
3370
6934
8927
4652
8516
5889
3729
1447
691
9751
789
9905
7023
6473
4776
9493
5726
4261
4651
8215
8753
6047
160
851
9514
5570
9643
5543
7950
6598
6927
5412
7596
4990
8040
2925
440
1535
3779
8817
8786
3464
4247
5488
6653
4391
7054
5219
1700
8430
4052
1008
2303
4652
5447
9020
3324
8778
1364
1955
1838
5888
5531
3117
7903
5787
6829
2736
5821
8283
3879
8846
2523
9527
6550
8723
3989
4150
5947
353
9572
8998
3495
3544
7491
3748
5094
6648
4622
3075
4993
4575
9047
7614
8620
9500
9245
8649
176
967
6128
5141
2420
2694
7559
7147
1541
3150
9914
5645
5702
9273
8343
6748
2060
9381
6761
377
4193
3213
7247
7388
5440
9565
4958
3397
7351
2983
2629
4693
6659
478
5623
571
9762
1784
9020
3075
1376
5922
8338
2184
8471
6985
8707
5999
2145
7060
2746
925
4965
1689
6776
2415
5629
2068
9181
9054
7301
2813
2841
2697
3236
424
5808
5760
989
5565
2010
5759
5418
2591
2608
6228
4018
8924
9692
9814
1436
8535
1270
436
274
8741
735
5750
5812
6996
4260
2762
4692
5579
2988
2146
9866
6228
2898
6467
5831
1561
3260
60
7690
4419
760
3919
677
4404
8535
5158
892
4920
1522
3642
7548
8421
591
4132
960
4976
6624
6337
2186
7476
6025
1733
5817
9992
6156
4203
1996
3440
7314
1355
7492
7699
5760
825
6602
6377
5276
8104
1555
7213
7152
6858
8736
6277
6588
8190
1806
1538
8129
5626
3598
1249
1065
8051
850
2521
1117
1268
6354
7784
5912
8385
5627
6940
29
7629
1768
3296
4951
996
8010
8314
1183
4872
8591
3030
9279
1319
880
1415
1772
2398
1138
8549
9612
1946
2217
5512
4781
6665
915
4747
1615
9334
8130
2882
2150
6418
874
552
2323
7175
4051
2969
5137
6971
5395
8969
7322
9348
143
9021
3097
7824
9773
339
9861
5927
8777
6470
6497
1482
6898
7217
968
867
4384
3153
8483
6574
1772
1977
3025
5690
5024
4787
313
5418
199
4437
2075
3050
6525
3963
5908
7372
7183
5402
8685
8898
6704
771
1119
6110
2328
9531
2318
5037
775
6064
7611
6991
3956
3466
2677
2940
7772
7702
7870
9399
5812
1577
2609
4409
57
3577
4324
639
7981
6797
7266
803
5556
5224
5560
5989
2541
7368
4605
1996
6504
3356
3511
2516
5264
4871
4274
4030
1807
4915
3435
5863
64
1406
5038
4918
3009
4304
5322
4093
5000
2045
7866
1888
4908
6734
7403
3778
6727
5068
5013
2044
904
1061
1871
4750
2125
2078
3507
7449
8594
2580
139
4599
2766
4575
4681
8386
445
9983
902
8093
7245
2089
3077
9527
5546
5136
5919
9792
3305
5805
6035
1912
9695
3910
3949
9101
7523
3646
2512
55
2830
1445
2417
9584
2079
114
2091
6213
8888
3968
8411
6253
1197
5683
5868
2907
5678
9257
2031
9201
9946
2575
1911
24
5570
2891
9723
5526
5186
2954
1487
1664
8806
6973
53
7618
7994
7222
1514
4254
5948
9146
9292
3321
369
9603
9465
5551
7214
2598
4363
2143
2470
3265
2819
4256
9705
4116
1150
1142
6127
6504
1214
1400
7101
9396
4562
2134
6031
770
3424
2178
2529
5638
4554
8270
4865
4137
5055
6641
5319
313
4915
40
7484
2780
888
4037
7664
339
2549
6229
2018
3882
6422
4798
6119
5517
7785
6586
8649
3541
4919
771
982
5038
4403
9222
3446
4219
3087
8536
4347
6637
109
9856
7351
3022
6309
6506
1522
299
9344
8359
8454
5830
7605
838
1095
9527
8781
7633
7323
2157
4160
5206
6829
2300
2612
2966
5960
4350
3730
5417
6044
4035
8529
7653
8822
9029
8419
3468
277
637
3236
380
5125
842
3024
8739
2528
4017
8730
7361
9030
8757
1610
5192
9726
1011
2407
4930
17
3514
2465
3921
3101
9613
6103
5740
3326
7712
9763
5849
5176
3585
6208
6016
4781
5268
3882
6045
6925
9032
4000
3019
9147
3296
9148
6243
8000
8315
2941
4368
2405
8480
8717
5091
6263
7294
8926
1177
2362
7880
2426
8575
2741
5224
7830
1314
1677
2582
580
1983
1630
2014
6864
336
8854
1816
7067
3477
5051
6754
5804
2934
999
7371
5661
2726
6269
8282
4964
5397
7535
7435
663
33
5987
8590
8265
9863
491
2120
2102
3826
6526
7702
3375
3063
1767
1967
5039
4956
5095
6701
6150
3207
877
2440
2562
2687
7852
1208
531
5193
2698
9247
7259
9872
9779
5357
4721
2565
7197
9275
7835
4103
1584
6489
7361
6284
796
5117
7787
4047
2685
3090
2318
8560
5930
7715
1557
4444
8834
4102
3606
1315
6245
4217
4404
4465
5679
7279
5754
73
848
7676
7914
2357
3349
5396
8829
2028
8574
2124
217
7591
5181
6017
3645
7777
5084
2900
8251
1419
9860
6442
6808
1602
4417
6280
567
7951
3764
6693
4756
6167
6161
8572
6866
61
2666
1170
1092
3276
9748
2283
7800
6850
6886
5262
6193
8383
7215
5408
3306
1354
7734
2420
4575
4883
3248
3777
6848
4244
8879
9308
5193
2432
933
469
7757
7572
9839
7099
2563
8233
141
7404
5545
8281
3981
337
9046
6499
9781
6418
4513
2133
936
6866
5350
7046
6472
10
7186
7154
7442
668
6155
6264
7316
969
4259
4192
3590
5235
955
2514
9686
266
2152
3438
2923
9343
5721
4518
3648
4917
956
4678
8186
4753
1581
2828
217
7313
3979
1656
9338
8144
1444
3720
3949
9192
8321
4848
2937
6386
4186
484
1246
8319
9540
7815
1576
8129
1780
1694
4438
1178
9619
4552
902
3651
1943
3285
8664
275
6380
3159
3537
8271
8925
7495
7133
6629
2707
9665
5727
4565
5427
7503
1104
2555
6919
461
8551
6076
9327
4089
7464
4845
9439
8798
1666
2715
2097
4227
636
679
6530
3694
8773
5615
8358
510
6616
351
8814
3532
5716
8338
7360
7437
90
5865
9018
5028
5515
481
719
5001
3094
778
1338
916
6080
4585
7493
5627
1259
9453
6460
4781
4295
7850
655
8260
6086
1096
6453
8905
4413
7608
7721
6348
6158
3358
2198
3596
6163
6931
103
3133
6236
5379
8593
9393
6912
7124
3521
549
8518
1115
990
9521
8449
3875
5676
4277
6478
3579
3426
4724
5059
1808
2157
2308
4199
9353
2555
8194
3593
4123
1246
2537
5593
5150
3442
5584
9977
8523
441
6677
5821
7058
454
2450
593
6842
1158
9860
7851
6277
2189
839
4414
8482
7363
5103
6381
8685
1917
1891
9567
5592
9838
6771
9725
1009
1780
5307
5583
6036
9935
5694
8842
9817
9506
713
1788
607
6524
4915
2298
213
5019
6193
8341
9364
6739
4185
1682
7126
2858
2355
3720
8230
5765
6510
3112
714
3886
6295
6570
6737
3305
8643
8123
3266
1282
4125
7189
5390
5202
7563
1829
5624
8667
5192
2403
7899
7204
6409
1490
8078
688
7411
5555
6188
8326
6024
7212
8364
2068
9611
5322
4670
6421
9739
1157
7034
6029
5436
5911
1264
3709
477
2766
4084
4676
2685
9097
268
4121
286
5643
688
9011
9923
9680
534
2845
7495
5518
6451
9276
4519
1532
4713
7958
239
9302
5679
6268
4232
1459
8192
6762
667
3163
8
8516
6671
7498
4334
7180
9666
9795
6505
3236
998
8957
1088
1362
3373
9167
2875
2547
1354
1153
2008
211
3137
4436
794
9556
6773
7721
1658
2896
5814
4987
7625
8973
2723
2526
4314
7365
3360
9530
1029
2576
2395
6619
5014
8920
3754
3011
1570
3436
6026
1818
5264
7417
2804
1281
8691
9845
9155
2476
9893
8036
5372
6812
7723
4
5958
8319
693
6943
8268
4031
7315
6786
787
7147
3485
7080
6288
834
1383
5839
930
3894
8503
9041
675
9753
5006
5689
5370
7831
2422
8615
9024
949
6585
5737
3068
8683
9436
8408
7637
3348
3123
1863
9324
7787
9389
180
7134
8353
4557
1701
8802
5481
1373
4875
103
6869
5692
6093
1125
8739
6435
913
3425
6369
9961
2582
1922
8014
3990
932
9832
8034
624
3347
9473
2498
4148
2752
1487
101
952
3538
8952
2672
3374
7822
9286
1594
67
5712
2091
9864
9345
144
4034
8404
1378
7621
5474
2269
5957
3061
937
4686
2136
4348
4740
1321
8484
580
1971
9031
124
1574
4628
6270
3230
5921
1601
6393
3399
6292
6107
7583
4727
4104
642
688
1964
3670
339
9810
8764
9847
6877
5745
5455
5263
4422
4280
8700
4439
4779
9212
8713
8009
5221
5391
916
5706
5466
3657
8292
4763
3308
8463
5424
5221
5238
1799
9188
5760
4426
6724
3991
5201
7313
8929
2303
8410
5285
7796
3902
2513
7852
7393
4329
349
3213
4582
1123
4891
3376
1376
2658
3014
2907
6132
2527
2348
7515
7508
454
2140
4632
6971
817
4484
6802
4258
9625
3030
8220
491
5771
1231
6847
9585
7562
4047
3673
8396
5658
6378
598
848
615
1602
2224
5296
8248
7543
3132
9562
9844
5636
8945
6669
5417
1510
7515
180
8594
2292
5376
2825
9257
6637
4586
5507
7012
9906
9623
1732
1143
6717
5204
7898
9994
371
1541
7818
499
9270
9464
9816
6313
1439
2306
6148
9969
9844
9437
176
4607
9913
842
7592
9930
979
1782
3826
1169
250
8945
240
8101
1808
1337
9707
5464
6787
5840
3634
425
7445
8092
5883
5720
6110
5066
9868
9946
9970
7390
9508
3796
8496
8812
4587
7259
230
3235
8225
2445
7336
8257
2297
5504
5980
8977
843
2552
5370
6687
629
1490
8763
1198
1627
2483
9002
4281
2904
64
7154
811
4301
7469
633
1786
6685
697
3080
4626
3209
8813
4629
5933
9421
8889
2431
3012
5300
4224
4534
4465
5205
9856
2852
898
8159
5419
6355
9314
4323
2832
2399
1444
7895
674
4129
9079
684
5447
329
5286
8047
7940
1914
3435
1072
9466
1710
4607
6007
1950
8576
2817
1065
1542
1044
4354
3816
3471
9083
3860
4181
2662
1053
9726
7427
8332
4734
4488
592
2942
5155
2672
8284
1376
8153
5477
8919
7274
8555
1458
3780
4568
4770
1436
6523
9895
1246
5327
8323
6592
7390
304
5557
2822
9092
3733
2612
9679
3679
3462
2438
9195
549
2892
7265
6978
3542
1516
5955
3022
9029
422
4515
8398
3834
5625
5285
6927
3095
9534
6418
8265
2565
7310
3537
530
8243
3787
1737
1612
4824
7115
6152
1497
6933
5603
4640
5131
5395
6974
7608
1696
9364
6691
1045
6771
482
4673
6427
2314
3633
712
6247
4391
2739
8633
1577
795
4075
8239
8777
74
1201
5370
1077
2433
7915
2120
2000
3039
5871
2137
4830
2127
61
3786
9548
3059
7676
2826
7992
1960
2608
3875
293
3389
1708
5228
9047
6113
7690
5699
9822
5303
9427
8589
7336
6607
4412
2484
6292
3576
6712
2784
6694
5216
1696
5180
8121
1857
3693
6368
8102
3726
561
6602
6351
7861
391
4421
9615
2037
2164
5238
7452
7244
5416
9981
7893
5521
4466
2973
3653
3496
3742
7209
8120
9360
239
2917
7044
7353
8791
2020
241
8590
4315
995
8554
3850
4631
8900
9487
6912
7666
2212
709
5094
289
241
4150
6323
9649
3480
359
3855
2615
4243
592
9321
5576
710
3770
7100
7937
9001
8597
1014
4554
3784
7692
9045
9895
1512
6773
2839
8897
2594
8695
4949
7452
328
3122
9308
6452
4655
7530
4855
843
1665
9408
3976
3791
5134
6982
633
5195
5972
3579
1347
5735
1740
2456
7834
5792
5668
1955
696
7628
1765
3709
6753
4094
4673
2410
457
3984
7355
8040
6565
5993
6345
8176
4342
2905
7888
8166
3752
2008
3374
8977
9838
1812
8321
8430
8207
729
9276
4182
4279
351
1688
4671
4457
3001
961
9227
5584
4217
6105
9093
2119
5566
5301
5758
9606
4378
3959
2017
1359
9213
1707
5519
9513
1591
30
1190
3234
2614
8011
4159
8227
8324
4270
2631
5630
1968
8899
662
8066
3862
812
4222
4903
8535
3504
3984
9562
3728
627
5755
1061
4947
1012
9986
3477
4288
8964
3071
2402
777
5836
5772
6167
604
4504
5881
4072
2943
7646
4186
7982
680
180
1817
2735
3047
4939
5399
8234
8410
5546
9077
5726
980
4248
9603
8525
4409
6922
2347
8971
6548
8694
3084
1272
7527
4335
4518
874
4337
1531
2900
711
794
2222
899
2751
7390
1433
9064
1852
6324
840
1533
5117
4250
7041
3227
9853
278
683
8313
3003
1249
6014
2664
7074
8906
2344
6335
967
5866
3884
7914
7577
8119
3497
3164
8578
4993
9007
5169
889
1153
1102
2320
7230
7761
7154
2597
8542
747
2844
6417
4450
9462
9611
7309
1462
8812
5836
5480
3394
6765
4679
3921
6022
7030
418
487
5341
1096
2249
8497
1328
1162
2462
5360
4802
3342
1612
6820
7984
3226
7183
2657
4260
8519
2044
4410
2060
7839
2590
4009
6234
8013
6019
104
9277
2816
7923
2914
957
2387
7585
2134
7125
461
1137
960
7754
286
9867
2853
2499
7388
5219
9470
5879
4201
1147
7153
9836
6971
4282
2971
348
3267
3871
9496
4532
1829
8066
924
7915
9719
8829
8711
8866
5363
508
5206
1624
4901
8204
1165
6576
5834
6551
9487
8188
8815
7981
1892
414
3794
6812
164
2006
7494
1982
6596
2933
2583
6021
1312
3166
8155
4607
5079
4545
2666
110
1765
7282
4752
8576
6299
8059
6389
603
6332
182
6144
4752
112
6617
6044
5712
5452
9057
7768
7180
9565
2014
7503
77
8293
3672
2847
5317
2592
8422
2471
2028
347
593
9510
3293
7154
3297
9499
1207
3481
7800
123
2978
8974
9558
8545
8918
8417
6709
9514
7474
4524
3077
5987
2410
6512
7865
8063
317
2009
5815
239
5221
8339
8742
625
7351
5727
2657
2777
1288
8448
7985
9613
2533
7110
9405
6287
2444
9350
7480
7986
5388
2437
3331
3589
7145
8126
4057
6276
4757
172
9026
9659
4426
4552
7444
3331
3691
524
2007
1474
9183
914
2287
1855
3771
2542
5232
6315
2724
414
9769
6825
1109
9759
4033
8964
7033
830
6051
4447
1235
61
9850
2914
7791
2910
7187
1940
1108
7372
2858
7941
5592
3367
784
2598
473
6496
2400
1772
3438
4975
9088
6662
8181
2956
2081
7436
4370
6962
182
8451
2666
5203
7774
1235
7728
9025
5067
5153
7086
8682
5009
702
5647
8854
2349
518
8482
7313
2065
318
8182
189
4062
6874
8732
6310
3442
3235
1879
3346
903
9854
7515
7241
1894
1550
6604
5888
7712
9290
5632
6786
6269
7128
8181
7111
5970
6070
6211
7046
8163
475
4645
3096
2799
3636
132
5240
6892
2566
5654
454
4574
6594
6200
3723
6073
1443
6214
2102
6100
2981
6622
2857
6699
2356
874
4104
9572
8002
2079
7897
1046
1828
1601
9856
9614
5748
5617
4333
9105
947
3581
6065
9081
7614
4070
8146
5784
5392
1532
1508
773
4350
5072
2451
9213
1006
6623
6086
4601
8734
7387
3383
2610
8026
1290
7497
2120
2605
8669
6927
4672
200
1467
3086
3667
4587
730
977
724
1477
9461
1240
1437
1471
7302
3333
7171
4439
417
6737
1072
4749
3894
5198
4935
7142
5757
1394
9751
3492
8259
1774
315
9302
8721
9766
798
7411
3582
7011
628
8889
5197
4977
1503
9471
253
3247
4014
7627
4348
1204
9200
4865
2285
2324
2929
3268
2285
5736
2350
4821
4094
5417
519
3394
9238
8521
6952
3551
5202
1709
7366
4166
8765
9641
7810
1369
7902
6119
4584
595
1042
6510
9884
6814
1516
8849
4341
7825
3321
8776
4743
1728
5881
527
9253
1864
9288
4341
8021
2736
5667
468
361
3879
8414
7379
3679
6302
5157
5559
9013
6806
7493
5958
2670
4441
4738
1853
3312
238
1946
8063
3074
3411
6314
5737
2213
8027
4072
2252
8114
6867
9126
9437
4189
1781
5957
4659
6368
9222
1801
3548
161
5065
9028
5053
9705
2007
2663
4761
9056
3492
188
2148
4300
4357
5482
8234
3318
7855
4615
2017
3648
6400
6930
4735
1091
2854
9331
6699
5333
6128
8642
9805
2685
8990
2698
744
6422
7949
7028
3444
417
2271
3623
9982
5618
5843
2162
8174
55
6542
3838
6448
2620
8737
5367
2926
5103
7969
8843
8443
8586
8584
1823
6422
2540
4610
9344
7037
4017
1581
6932
6185
6482
3903
443
8179
7750
5897
2660
3577
5732
9353
6918
2642
1225
8102
5630
2926
2868
8990
9670
2870
5422
938
5510
5885
988
9526
7459
1353
8909
2730
6447
5661
3230
5219
7764
9610
1282
4928
9742
4223
6637
6115
3822
7866
260
9631
5520
815
7817
6308
147
6670
3898
366
1497
3607
9609
9733
6814
8951
9692
644
5991
9140
8798
5661
4278
3420
7949
8443
1468
3396
3662
7049
3002
5726
8501
2407
5459
2693
6825
7824
2821
2128
6750
8870
3438
6421
3783
2452
3663
1474
2134
4991
7338
812
3769
842
7784
8779
7633
6996
1546
8191
9464
6189
367
866
1919
791
1284
1240
6158
5607
5620
9866
3679
4308
5590
5617
5710
7687
9730
10
6877
7540
9961
6800
745
4395
7536
795
777
9092
976
1176
5770
3219
9957
3458
2343
5120
6135
9634
179
366
145
2307
4097
7075
4816
4393
6552
9524
7264
1385
371
811
3016
4633
7668
524
6707
4608
2897
9040
4625
796
8501
7677
8710
4556
3142
2525
2407
5493
6381
2844
9029
1845
905
7330
1990
3025
3430
3955
7591
3532
821
5707
7016
914
2416
9731
9404
8063
8513
1453
592
1859
5264
4405
6791
9607
541
2220
9368
450
3307
6678
7131
3612
1550
2509
9632
359
9863
8443
394
8546
2410
2823
8386
5552
7693
1256
5932
9807
7556
7126
6493
7262
4178
6029
845
3549
9645
2063
6796
1384
5885
5015
965
891
3861
4401
6322
7202
1472
2264
7610
2399
4983
6245
3770
2581
9597
7225
310
9368
4110
1936
1777
9871
5607
1697
3849
8154
7582
1953
2719
3138
6149
386
8617
7045
7372
5996
61
6711
6449
7393
9710
203
4575
5233
253
3263
5489
59
2592
716
9075
5504
7527
7211
6218
6643
9743
1503
9429
1878
2461
1924
3482
1185
1477
9637
3550
7991
1849
6588
3982
178
4481
5452
7674
6247
2715
2387
6730
3418
7420
4113
6475
7894
679
5131
2633
8594
3083
7727
9399
2301
1707
9826
6658
1737
3109
4104
7806
4679
8256
7535
1524
4863
5510
5893
8040
958
7183
4234
8737
8021
353
5440
8163
239
7588
9899
825
6055
243
8114
5050
3122
2534
9887
7880
1558
1053
8452
3777
402
5256
5755
4399
7611
698
5157
9990
2413
2055
7850
5602
5323
9572
7242
6035
430
8190
424
8825
4554
6838
5106
9616
1231
1810
5406
881
6778
2188
9538
5480
1261
6866
9138
3871
2372
673
1019
1515
7923
96
1369
5560
7412
5020
2818
5603
615
3428
5699
8450
782
3793
1705
7655
5937
327
9593
3387
6498
6990
368
7727
8719
9362
3888
3253
1071
6324
7701
5028
4035
6624
4001
2614
9490
3965
8730
3202
8103
6318
8714
2755
6127
1165
6609
7611
9502
2427
1150
1049
2568
9737
6371
3293
1210
8115
5373
8132
3665
3175
2463
9297
2440
8826
7379
2744
3095
5168
6968
7276
1746
1643
9812
9054
8229
6437
6585
3696
2458
6452
1055
1470
4869
2269
2023
6413
3480
664
3091
3654
6351
7535
5949
6253
5427
2364
1254
9751
6357
7533
2335
2261
9399
1857
2079
76
8636
6219
3823
2102
8660
6252
3773
8791
325
107
6272
255
303
2148
1332
8681
5140
4261
8903
6308
8740
3365
2366
8848
965
359
4135
4121
9915
4944
5500
2711
7792
1464
5984
2581
8444
3363
615
6193
4549
6349
6640
4815
7595
4507
7873
133
3854
171
8944
4525
4779
4897
5767
9764
2915
2519
572
2343
4038
4677
7813
6158
9453
8699
7309
8099
8770
547
8401
350
3048
653
1502
914
1827
148
7038
7623
820
6214
9653
5398
1612
2924
7850
6798
2972
1034
8832
356
9405
7515
9785
617
8769
1377
8688
2057
4174
2409
1081
891
4798
3381
8884
7549
1677
6559
3392
6131
807
7473
7200
8323
2027
4050
9847
6948
5812
2826
2959
9156
6029
6008
6021
9599
5547
2105
6002
4938
5967
9384
7971
6512
6451
9888
5644
327
1736
428
9492
5710
4548
8805
1590
7881
4124
4881
2238
2898
5186
4056
4644
9721
3711
3884
1151
9102
4803
8214
5997
193
5918
6732
7392
4093
2959
9144
9179
349
8138
5654
2662
6843
4587
8169
5735
2089
6378
6780
6537
8287
8607
2231
7063
9634
370
987
41
6755
6400
9214
4255
494
6725
7974
9009
2243
3749
7650
5658
4066
1308
5139
8310
6707
7539
1435
7008
417
5053
6565
759
1578
5072
4931
6281
9273
1424
8092
872
1667
2825
5790
8774
9574
2153
5556
6437
5462
3554
4093
3632
7023
2127
2274
5920
9869
8294
7989
4305
1075
6467
8194
9749
7875
1674
8205
5692
1111
5981
6953
7577
5700
6280
9136
4440
4123
1051
8928
1561
3936
8973
9585
1962
798
3193
8326
2720
2717
3054
7010
3602
8023
1521
3567
8633
4040
7482
8235
6127
5393
6191
7268
9898
1864
7807
4575
8985
974
4440
2398
34
127
2529
9469
6995
2765
5156
9023
8509
1596
1193
6789
1496
7226
2045
5466
4332
8618
5528
6195
7564
5124
4521
9957
5393
2700
5466
570
1229
4608
4864
7443
4964
7705
1608
8161
84
2859
6424
8980
6316
9037
1896
447
5115
1759
6772
4843
7852
8314
827
5625
6433
7491
2268
1386
2768
7887
1254
5637
2997
7042
4145
5893
6074
3919
5668
5226
6349
5334
5229
2531
5483
9130
4580
911
4183
5393
8021
6619
337
8055
113
8977
5120
6612
7065
8274
3732
9841
8040
8961
2655
1306
6112
8324
8421
2854
9980
6257
5685
4911
6151
6111
1793
1683
1324
101
9839
5918
9882
3019
1823
4726
7454
6559
4911
6506
259
2312
222
6626
3943
3986
6381
9787
5899
8642
4345
9752
4348
6476
9434
4329
3140
6101
1175
481
3066
5093
9942
3278
3229
5452
8485
9838
9953
9230
4881
8948
2005
8451
6184
162
3393
3774
7403
4174
8215
9666
107
9759
3161
2512
8148
6756
3024
4758
6994
3964
7973
6128
9662
1156
1838
6988
3404
9429
8454
4487
9996
9282
2197
7613
3756
2136
1715
7652
6759
8033
461
3741
6317
7068
4148
5919
1178
1886
2108
5282
4153
5149
2084
6468
1904
8969
1729
9985
656
2961
5124
2788
3091
1910
5426
9704
5181
9129
4156
4440
3828
628
2181
592
2514
7243
6190
6213
4318
6352
6968
3106
8740
7154
4391
8187
6902
4254
7815
9497
9518
3745
443
1164
9341
2448
8673
7984
3495
3413
2217
6333
5054
7678
239
9654
882
1065
5600
4282
4244
2025
8199
3322
1421
2906
4202
8939
8399
6612
9292
6238
7513
3578
3079
6129
8537
3191
5235
211
9739
8765
4288
6177
2929
9985
1139
2873
5286
813
5882
7582
1360
5686
1342
1607
3865
6712
165
6317
2285
9661
4207
5904
7555
1529
9235
6440
8432
4532
1787
4116
3123
1835
9193
6695
8166
8823
8876
2216
382
8664
5073
2902
7920
3116
5757
7573
1166
1250
413
3806
9905
9651
9440
8759
3085
7614
8906
4485
8922
6150
6982
6377
7407
8358
9281
5499
3043
7915
8904
6316
4741
4139
7542
3827
3729
3156
7361
3948
9340
5142
9517
1389
8790
8530
3763
6683
8749
3616
9382
6711
1622
9694
6866
1551
5846
8138
7889
7851
3643
1777
5610
8747
5539
1088
6781
9948
4577
4501
4836
5062
6068
1316
7630
8182
5015
2089
6097
4944
6922
1822
1610
3090
761
6000
8372
7416
8376
4411
6212
8438
6240
1235
733
1260
9101
855
5807
1776
2666
2501
5787
6659
7500
8244
813
3837
3895
5154
6009
6145
5228
9814
6944
3252
3043
1793
1586
207
9684
8184
7009
5320
5940
774
6080
5305
6000
4703
2385
2902
7866
276
2961
9398
8859
4543
7214
6989
1114
1520
828
6690
3061
8967
6358
2000
9650
6494
9540
4497
7715
6581
8589
2573
9250
6410
1447
9410
9916
3572
4105
2279
5717
4039
7395
907
762
547
6054
9098
6066
3373
8278
4364
4862
4136
7583
8766
5813
4409
5949
2148
1729
5048
2300
8737
177
1950
1297
5437
764
7713
9029
8403
2553
1646
7843
1064
2413
3996
1664
860
650
5289
1038
9032
8954
1282
5041
1796
6577
2023
4605
354
156
9150
7970
1952
1978
4514
5792
9892
8894
1411
4627
6049
5719
552
1400
7392
4514
2203
8891
2098
4239
1310
1979
9912
5855
7367
6511
5537
6661
2634
3438
9334
3228
3522
1283
858
5102
3916
5594
8766
8830
5873
5394
619
6887
240
6462
6961
9263
7741
2563
4748
980
9789
2525
7697
6468
7546
9824
9065
5093
9178
4079
8862
6871
7265
8239
1325
9207
2129
2357
838
4404
4526
6622
8620
1856
2078
3230
5469
9779
7355
8471
5283
6300
4636
2285
6726
8901
3061
4868
9177
4977
3293
8068
5190
8030
8295
8567
1556
4830
2569
3053
8059
1586
3334
5834
5374
2640
3838
9098
3216
2886
2769
2096
5098
7400
6546
9829
1576
5807
3940
8817
4526
9915
4496
680
3224
5236
9633
8283
1646
2556
8931
8313
6460
901
4231
1486
7454
870
5056
6014
6535
5970
5330
2330
1616
4846
9101
9707
8312
214
3952
9707
5766
4015
7856
8535
1679
7216
4351
8069
2511
6616
3441
7605
9847
6177
9854
6279
4262
6670
9734
2633
1574
7632
5111
6325
5611
5505
6281
3150
436
5789
3621
4259
11
9849
1628
962
7744
366
811
9456
7082
7384
9885
490
917
9492
895
8765
1264
7107
3850
2022
658
423
2629
659
6560
5283
3434
9569
8471
6697
4391
8313
4781
2472
4243
4034
1722
9159
6744
815
572
5236
9687
4042
2111
8459
3432
3178
5121
4882
4247
2682
1368
410
2467
7064
1487
9445
7849
9839
8168
7429
5943
6727
5257
2724
4272
8436
5454
9138
6755
5600
9277
2266
8366
5901
6858
9330
2361
4148
5677
6069
3693
4460
9957
9051
9652
7561
678
2625
8964
4057
4187
218
6482
8729
7472
9496
945
7888
8331
3738
3003
4144
3486
1603
2966
8807
3252
2703
7669
988
3482
217
5067
5153
3922
8924
6924
6427
4158
9708
4361
2704
3199
1057
6786
8873
4829
4953
6331
7045
7734
5968
8076
1415
7688
2038
5968
492
2987
8987
1817
3319
9876
901
9177
1320
7796
288
7202
3986
3648
1334
6954
9196
3990
2007
1705
6575
9718
7474
858
9195
2069
7137
5209
6657
1723
6295
1106
415
7536
5480
2634
8521
35
4884
1388
8044
6057
3707
1885
177
6877
5325
7301
5826
5175
9956
9445
8568
3001
9654
8073
7396
8030
9461
7486
6681
9748
6924
3500
6049
9219
7729
4333
942
7863
7709
9620
494
9534
8258
6337
4173
9719
9529
2657
8309
9394
8975
4709
4512
2302
2189
6765
6572
3698
8531
4257
5575
4574
4289
2250
9085
777
5992
6727
769
8061
4370
8843
1694
2075
5845
6726
629
8123
3362
2826
2622
9011
3018
6721
6328
519
2131
1307
4540
9286
1205
1987
5186
6814
8262
2840
5116
7286
2015
8873
6769
9478
7555
6902
3090
3937
9741
2564
1810
3642
110
8197
401
6863
7029
2986
6265
8968
5092
1839
1182
5577
5629
6943
956
9928
2945
9537
829
8927
2467
5514
4744
705
1618
3250
8461
8481
9209
3409
9743
9608
5254
9422
5100
6769
5898
5373
8386
8503
2191
8829
9556
76
6022
2317
8779
1701
9218
3710
7048
4806
5749
8386
4600
835
4939
9522
9216
8049
140
5249
8316
9733
3775
8170
553
96
4236
9090
2977
4210
159
2409
7577
9411
2967
2234
5713
574
5345
2403
9448
1492
1901
893
3620
9890
5729
3753
6417
2225
5498
2745
3964
2048
8232
1822
1434
6125
1773
972
6360
3325
9802
8311
6657
3806
125
4412
9966
8323
8659
6868
2215
1700
3756
2256
9535
3688
243
6450
8246
8481
9237
4940
1968
9667
2256
5663
6925
132
1464
8669
8193
463
7705
7003
4386
7694
8658
8449
8754
9187
1514
9526
5991
9263
9458
6620
1095
3395
4800
1387
3669
8044
1942
9964
156
5426
507
6596
2983
5958
6801
4621
7777
6388
6095
295
5449
5956
788
5307
4582
7102
8502
5923
6674
3533
1937
8294
6593
2398
9055
3485
3541
3425
1090
2971
4913
6521
5458
6666
6949
9724
5720
225
6678
3734
5733
4248
9101
1813
4803
6765
1367
876
4330
1434
7911
1102
1315
2397
83
659
1367
5827
4559
7772
3726
5919
1784
8030
6105
7002
557
8329
3675
4670
2256
8342
5652
237
570
316
1063
9291
8236
3854
3136
2154
8268
8867
8903
4838
7177
6205
3363
3177
6654
1967
2578
8796
1808
4084
5886
513
9525
9198
9130
832
151
1499
5021
3359
8620
9046
4277
7591
3228
9150
1549
7313
8690
5080
2483
8611
8481
8954
9319
4303
2942
1671
5633
431
384
3439
2383
8061
318
8384
7040
7357
192
8563
6476
4046
5794
9035
3242
7502
8073
5135
9466
8024
1656
6260
3284
7658
8075
4241
8788
3909
8858
4216
1538
1727
4475
3043
6655
4719
7001
882
2726
7082
7122
4327
6135
9543
6206
1203
5748
538
3730
2558
9764
352
5353
8468
3797
9110
9526
8998
9439
4215
2937
911
8000
2771
7981
1739
273
7882
1522
7902
8799
1676
8666
9415
584
2052
7800
6789
9523
3749
6582
2475
3416
6925
7932
3733
2100
2775
303
6180
6163
1840
2069
5282
8465
5108
64
1542
5153
359
738
8726
9707
3471
2424
9850
6770
3058
1174